%!PS-Adobe-3.0 EPSF-3.0
%%Title: gl2ps_renderer figure
%%Creator: GL2PS 1.4.0, (C) 1999-2017 C. Geuzaine
%%For: Octave
%%CreationDate: Mon Feb  3 11:34:54 2020
%%LanguageLevel: 3
%%DocumentData: Clean7Bit
%%Pages: 1
%%BoundingBox: 0 0 360 252
%%EndComments
%%BeginProlog
/gl2psdict 64 dict def gl2psdict begin
/tryPS3shading false def % set to false to force subdivision
/rThreshold 0.064 def % red component subdivision threshold
/gThreshold 0.034 def % green component subdivision threshold
/bThreshold 0.1 def % blue component subdivision threshold
/BD { bind def } bind def
/C  { setrgbcolor } BD
/G  { 0.082 mul exch 0.6094 mul add exch 0.3086 mul add neg 1.0 add setgray } BD
/W  { setlinewidth } BD
/LC  { setlinecap } BD
/LJ  { setlinejoin } BD
/FC { findfont exch /SH exch def SH scalefont setfont } BD
/SW { dup stringwidth pop } BD
/S  { FC moveto show } BD
/SBC{ FC moveto SW -2 div 0 rmoveto show } BD
/SBR{ FC moveto SW neg 0 rmoveto show } BD
/SCL{ FC moveto 0 SH -2 div rmoveto show } BD
/SCC{ FC moveto SW -2 div SH -2 div rmoveto show } BD
/SCR{ FC moveto SW neg SH -2 div rmoveto show } BD
/STL{ FC moveto 0 SH neg rmoveto show } BD
/STC{ FC moveto SW -2 div SH neg rmoveto show } BD
/STR{ FC moveto SW neg SH neg rmoveto show } BD
/FCT { FC translate 0 0 } BD
/SR  { gsave FCT moveto rotate show grestore } BD
/SRX  { gsave FCT moveto rotate xshow grestore } BD
/SBCR{ gsave FCT moveto rotate SW -2 div 0 rmoveto show grestore } BD
/SBRR{ gsave FCT moveto rotate SW neg 0 rmoveto show grestore } BD
/SCLR{ gsave FCT moveto rotate 0 SH -2 div rmoveto show grestore} BD
/SCCR{ gsave FCT moveto rotate SW -2 div SH -2 div rmoveto show grestore} BD
/SCRR{ gsave FCT moveto rotate SW neg SH -2 div rmoveto show grestore} BD
/STLR{ gsave FCT moveto rotate 0 SH neg rmoveto show grestore } BD
/STCR{ gsave FCT moveto rotate SW -2 div SH neg rmoveto show grestore } BD
/STRR{ gsave FCT moveto rotate SW neg SH neg rmoveto show grestore } BD
/P  { newpath 0.0 360.0 arc closepath fill } BD
/LS { newpath moveto } BD
/L  { lineto } BD
/LE { lineto stroke } BD
/T  { newpath moveto lineto lineto closepath fill } BD
/STshfill {
      /b1 exch def /g1 exch def /r1 exch def /y1 exch def /x1 exch def
      /b2 exch def /g2 exch def /r2 exch def /y2 exch def /x2 exch def
      /b3 exch def /g3 exch def /r3 exch def /y3 exch def /x3 exch def
      gsave << /ShadingType 4 /ColorSpace [/DeviceRGB]
      /DataSource [ 0 x1 y1 r1 g1 b1 0 x2 y2 r2 g2 b2 0 x3 y3 r3 g3 b3 ] >>
      shfill grestore } BD
/Tm { 3 -1 roll 8 -1 roll 13 -1 roll add add 3 div
      3 -1 roll 7 -1 roll 11 -1 roll add add 3 div
      3 -1 roll 6 -1 roll 9 -1 roll add add 3 div C T } BD
/STsplit {
      4 index 15 index add 0.5 mul
      4 index 15 index add 0.5 mul
      4 index 15 index add 0.5 mul
      4 index 15 index add 0.5 mul
      4 index 15 index add 0.5 mul
      5 copy 5 copy 25 15 roll
      9 index 30 index add 0.5 mul
      9 index 30 index add 0.5 mul
      9 index 30 index add 0.5 mul
      9 index 30 index add 0.5 mul
      9 index 30 index add 0.5 mul
      5 copy 5 copy 35 5 roll 25 5 roll 15 5 roll
      4 index 10 index add 0.5 mul
      4 index 10 index add 0.5 mul
      4 index 10 index add 0.5 mul
      4 index 10 index add 0.5 mul
      4 index 10 index add 0.5 mul
      5 copy 5 copy 40 5 roll 25 5 roll 15 5 roll 25 5 roll
      STnoshfill STnoshfill STnoshfill STnoshfill } BD
/STnoshfill {
      2 index 8 index sub abs rThreshold gt
      { STsplit }
      { 1 index 7 index sub abs gThreshold gt
        { STsplit }
        { dup 6 index sub abs bThreshold gt
          { STsplit }
          { 2 index 13 index sub abs rThreshold gt
            { STsplit }
            { 1 index 12 index sub abs gThreshold gt
              { STsplit }
              { dup 11 index sub abs bThreshold gt
                { STsplit }
                { 7 index 13 index sub abs rThreshold gt
                  { STsplit }
                  { 6 index 12 index sub abs gThreshold gt
                    { STsplit }
                    { 5 index 11 index sub abs bThreshold gt
                      { STsplit }
                      { Tm }
                      ifelse }
                    ifelse }
                  ifelse }
                ifelse }
              ifelse }
            ifelse }
          ifelse }
        ifelse }
      ifelse } BD
tryPS3shading
{ /shfill where
  { /ST { STshfill } BD }
  { /ST { STnoshfill } BD }
  ifelse }
{ /ST { STnoshfill } BD }
ifelse
end
%%EndProlog
%%BeginSetup
/DeviceRGB setcolorspace
gl2psdict begin
%%EndSetup
%%Page: 1 1
%%BeginPageSetup
%%EndPageSetup
mark
gsave
1.0 1.0 scale
1 1 1 C
newpath 0 0 moveto 360 0 lineto 360 252 lineto 0 252 lineto
closepath fill
gsave
1.0 1.0 scale
1 1 1 C
newpath 0 0 moveto 360 0 lineto 360 252 lineto 0 252 lineto
closepath fill
newpath 0 0 moveto 360 0 lineto 360 252 lineto 0 252 lineto
closepath clip
1 1 1 C
46.8 233.1 325.8 27.72 46.8 27.72 T
46.8 233.1 325.8 233.1 325.8 27.72 T
0.5 W
0.15 0.15 0.15 C
49.0869 27.72 LS
49.0869 30.5152 LE
49.0869 233.1 LS
49.0869 230.305 LE
94.8246 27.72 LS
94.8246 30.5152 LE
94.8246 233.1 LS
94.8246 230.305 LE
140.562 27.72 LS
140.562 30.5152 LE
140.562 233.1 LS
140.562 230.305 LE
186.3 27.72 LS
186.3 30.5152 LE
186.3 233.1 LS
186.3 230.305 LE
232.038 27.72 LS
232.038 30.5152 LE
232.038 233.1 LS
232.038 230.305 LE
277.775 27.72 LS
277.775 30.5152 LE
277.775 233.1 LS
277.775 230.305 LE
323.513 27.72 LS
323.513 30.5152 LE
323.513 233.1 LS
323.513 230.305 LE
gsave
0.14902 0.14902 0.14902 C
(-3) [3 10] 0 44.5869 12.2061 10 /Helvetica SRX
grestore

gsave
0.14902 0.14902 0.14902 C
(-2) [3 10] 0 90.3246 12.2061 10 /Helvetica SRX
grestore

gsave
0.14902 0.14902 0.14902 C
(-1) [3 10] 0 136.062 12.2061 10 /Helvetica SRX
grestore

gsave
0.14902 0.14902 0.14902 C
(0) [10] 0 183.3 12.2061 10 /Helvetica SRX
grestore

gsave
0.14902 0.14902 0.14902 C
(1) [10] 0 229.038 12.2061 10 /Helvetica SRX
grestore

gsave
0.14902 0.14902 0.14902 C
(2) [10] 0 274.775 12.2061 10 /Helvetica SRX
grestore

gsave
0.14902 0.14902 0.14902 C
(3) [10] 0 320.513 12.2061 10 /Helvetica SRX
grestore

46.8 37.0554 LS
49.59 37.0554 LE
325.8 37.0554 LS
323.01 37.0554 LE
46.8 74.3973 LS
49.59 74.3973 LE
325.8 74.3973 LS
323.01 74.3973 LE
46.8 111.739 LS
49.59 111.739 LE
325.8 111.739 LS
323.01 111.739 LE
46.8 149.081 LS
49.59 149.081 LE
325.8 149.081 LS
323.01 149.081 LE
46.8 186.423 LS
49.59 186.423 LE
325.8 186.423 LS
323.01 186.423 LE
46.8 223.765 LS
49.59 223.765 LE
325.8 223.765 LS
323.01 223.765 LE
gsave
0.14902 0.14902 0.14902 C
(0) [10] 0 35.8 33.0555 10 /Helvetica SRX
grestore

gsave
0.14902 0.14902 0.14902 C
(0.2) [6 3 10] 0 26.8 70.3973 10 /Helvetica SRX
grestore

gsave
0.14902 0.14902 0.14902 C
(0.4) [6 3 10] 0 26.8 107.739 10 /Helvetica SRX
grestore

gsave
0.14902 0.14902 0.14902 C
(0.6) [6 3 10] 0 26.8 145.081 10 /Helvetica SRX
grestore

gsave
0.14902 0.14902 0.14902 C
(0.8) [6 3 10] 0 26.8 182.423 10 /Helvetica SRX
grestore

gsave
0.14902 0.14902 0.14902 C
(1) [10] 0 35.8 219.765 10 /Helvetica SRX
grestore

2 LC
[16 0] 0 setdash
46.8 27.72 LS
325.8 27.72 LE
46.8 233.1 LS
325.8 233.1 LE
46.8 27.72 LS
46.8 233.1 LE
325.8 27.72 LS
325.8 233.1 LE
0 LC
1 LJ
[] 0 setdash
1 0 0 C
49.0869 63.4038 LS
186.3 37.0554 L
323.513 63.4038 L
321.226 72.6091 L
318.939 81.7255 L
316.652 90.7302 L
314.366 99.6008 L
312.079 108.315 L
309.792 116.851 L
307.505 125.188 L
305.218 133.304 L
302.931 141.18 L
300.644 148.796 L
298.357 156.132 L
296.071 163.171 L
293.784 169.894 L
291.497 176.285 L
289.21 182.329 L
286.923 188.009 L
284.636 193.312 L
282.349 198.225 L
280.062 202.734 L
277.775 206.83 L
275.489 210.501 L
273.202 213.738 L
270.915 216.534 L
268.628 218.882 L
266.341 220.775 L
264.054 222.208 L
261.767 223.179 L
259.48 223.685 L
257.193 223.724 L
115.407 223.724 L
113.12 223.685 L
110.833 223.179 L
108.546 222.208 L
106.259 220.775 L
103.972 218.882 L
101.685 216.534 L
99.3984 213.738 L
97.1115 210.501 L
94.8246 206.83 L
92.5377 202.734 L
90.2508 198.225 L
87.9639 193.312 L
85.6771 188.009 L
83.3902 182.329 L
81.1033 176.285 L
78.8164 169.894 L
76.5295 163.171 L
74.2426 156.132 L
71.9557 148.796 L
69.6689 141.18 L
67.382 133.304 L
65.0951 125.188 L
62.8082 116.851 L
60.5213 108.315 L
58.2344 99.6008 L
55.9476 90.7302 L
53.6607 81.7255 L
51.3738 72.6091 L
49.0869 63.4038 LE
2 LC
0 LJ
0 0 1 C
46.0869 63.4038 LS
52.0869 63.4038 LE
49.0869 66.4038 LS
49.0869 60.4038 LE
48.3738 72.6091 LS
54.3738 72.6091 LE
51.3738 75.6091 LS
51.3738 69.6091 LE
50.6607 81.7255 LS
56.6607 81.7255 LE
53.6607 84.7255 LS
53.6607 78.7255 LE
52.9475 90.7302 LS
58.9475 90.7302 LE
55.9475 93.7302 LS
55.9475 87.7302 LE
55.2344 99.6008 LS
61.2344 99.6008 LE
58.2344 102.601 LS
58.2344 96.6008 LE
57.5213 108.315 LS
63.5213 108.315 LE
60.5213 111.315 LS
60.5213 105.315 LE
59.8082 116.851 LS
65.8082 116.851 LE
62.8082 119.851 LS
62.8082 113.851 LE
62.0951 125.188 LS
68.0951 125.188 LE
65.0951 128.188 LS
65.0951 122.188 LE
64.382 133.304 LS
70.382 133.304 LE
67.382 136.304 LS
67.382 130.304 LE
66.6689 141.18 LS
72.6689 141.18 LE
69.6689 144.18 LS
69.6689 138.18 LE
68.9557 148.796 LS
74.9557 148.796 LE
71.9557 151.796 LS
71.9557 145.796 LE
71.2426 156.132 LS
77.2426 156.132 LE
74.2426 159.132 LS
74.2426 153.132 LE
73.5295 163.171 LS
79.5295 163.171 LE
76.5295 166.171 LS
76.5295 160.171 LE
75.8164 169.894 LS
81.8164 169.894 LE
78.8164 172.894 LS
78.8164 166.894 LE
78.1033 176.285 LS
84.1033 176.285 LE
81.1033 179.285 LS
81.1033 173.285 LE
80.3902 182.329 LS
86.3902 182.329 LE
83.3902 185.329 LS
83.3902 179.329 LE
82.6771 188.009 LS
88.677 188.009 LE
85.677 191.009 LS
85.677 185.009 LE
84.964 193.312 LS
90.964 193.312 LE
87.9639 196.312 LS
87.9639 190.312 LE
87.2508 198.224 LS
93.2508 198.224 LE
90.2508 201.224 LS
90.2508 195.224 LE
89.5377 202.734 LS
95.5377 202.734 LE
92.5377 205.734 LS
92.5377 199.734 LE
91.8246 206.83 LS
97.8246 206.83 LE
94.8246 209.83 LS
94.8246 203.83 LE
94.1115 210.501 LS
100.111 210.501 LE
97.1115 213.501 LS
97.1115 207.501 LE
96.3984 213.738 LS
102.398 213.738 LE
99.3984 216.738 LS
99.3984 210.738 LE
98.6852 216.534 LS
104.685 216.534 LE
101.685 219.534 LS
101.685 213.534 LE
100.972 218.882 LS
106.972 218.882 LE
103.972 221.882 LS
103.972 215.882 LE
103.259 220.775 LS
109.259 220.775 LE
106.259 223.775 LS
106.259 217.775 LE
105.546 222.208 LS
111.546 222.208 LE
108.546 225.208 LS
108.546 219.208 LE
107.833 223.179 LS
113.833 223.179 LE
110.833 226.179 LS
110.833 220.179 LE
110.12 223.685 LS
116.12 223.685 LE
113.12 226.685 LS
113.12 220.685 LE
112.407 223.724 LS
118.407 223.724 LE
115.407 226.724 LS
115.407 220.724 LE
114.693 223.297 LS
120.693 223.297 LE
117.693 226.297 LS
117.693 220.297 LE
116.98 222.404 LS
122.98 222.404 LE
119.98 225.404 LS
119.98 219.404 LE
119.267 221.048 LS
125.267 221.048 LE
122.267 224.048 LS
122.267 218.048 LE
121.554 219.232 LS
127.554 219.232 LE
124.554 222.232 LS
124.554 216.232 LE
123.841 216.961 LS
129.841 216.961 LE
126.841 219.961 LS
126.841 213.961 LE
126.128 214.24 LS
132.128 214.24 LE
129.128 217.24 LS
129.128 211.24 LE
128.415 211.076 LS
134.415 211.076 LE
131.415 214.076 LS
131.415 208.076 LE
130.702 207.477 LS
136.702 207.477 LE
133.702 210.477 LS
133.702 204.477 LE
132.989 203.452 LS
138.989 203.452 LE
135.989 206.452 LS
135.989 200.452 LE
135.275 199.011 LS
141.275 199.011 LE
138.275 202.011 LS
138.275 196.011 LE
137.562 194.166 LS
143.562 194.166 LE
140.562 197.166 LS
140.562 191.166 LE
139.849 188.928 LS
145.849 188.928 LE
142.849 191.928 LS
142.849 185.928 LE
142.136 183.31 LS
148.136 183.31 LE
145.136 186.31 LS
145.136 180.31 LE
144.423 177.326 LS
150.423 177.326 LE
147.423 180.326 LS
147.423 174.326 LE
146.71 170.992 LS
152.71 170.992 LE
149.71 173.992 LS
149.71 167.992 LE
148.997 164.324 LS
154.997 164.324 LE
151.997 167.324 LS
151.997 161.324 LE
151.284 157.337 LS
157.284 157.337 LE
154.284 160.337 LS
154.284 154.337 LE
153.57 150.049 LS
159.57 150.049 LE
156.57 153.049 LS
156.57 147.049 LE
155.857 142.479 LS
161.857 142.479 LE
158.857 145.479 LS
158.857 139.479 LE
158.144 134.646 LS
164.144 134.646 LE
161.144 137.646 LS
161.144 131.646 LE
160.431 126.569 LS
166.431 126.569 LE
163.431 129.569 LS
163.431 123.569 LE
162.718 118.267 LS
168.718 118.267 LE
165.718 121.267 LS
165.718 115.267 LE
165.005 109.763 LS
171.005 109.763 LE
168.005 112.763 LS
168.005 106.763 LE
167.292 101.078 LS
173.292 101.078 LE
170.292 104.078 LS
170.292 98.0776 LE
169.579 92.2318 LS
175.579 92.2318 LE
172.579 95.2318 LS
172.579 89.2318 LE
171.866 83.248 LS
177.866 83.248 LE
174.866 86.248 LS
174.866 80.248 LE
174.152 74.1488 LS
180.152 74.1488 LE
177.152 77.1488 LS
177.152 71.1488 LE
176.439 64.9569 LS
182.439 64.9569 LE
179.439 67.9569 LS
179.439 61.9569 LE
178.726 55.6952 LS
184.726 55.6952 LE
181.726 58.6953 LS
181.726 52.6952 LE
181.013 46.387 LS
187.013 46.387 LE
184.013 49.387 LS
184.013 43.387 LE
183.3 37.0554 LS
189.3 37.0554 LE
186.3 40.0554 LS
186.3 34.0554 LE
185.587 46.387 LS
191.587 46.387 LE
188.587 49.387 LS
188.587 43.387 LE
187.874 55.6952 LS
193.874 55.6952 LE
190.874 58.6953 LS
190.874 52.6952 LE
190.161 64.9569 LS
196.161 64.9569 LE
193.161 67.9569 LS
193.161 61.9569 LE
192.448 74.1488 LS
198.448 74.1488 LE
195.448 77.1488 LS
195.448 71.1488 LE
194.734 83.248 LS
200.734 83.248 LE
197.734 86.248 LS
197.734 80.248 LE
197.021 92.2318 LS
203.021 92.2318 LE
200.021 95.2318 LS
200.021 89.2318 LE
199.308 101.078 LS
205.308 101.078 LE
202.308 104.078 LS
202.308 98.0776 LE
201.595 109.763 LS
207.595 109.763 LE
204.595 112.763 LS
204.595 106.763 LE
203.882 118.267 LS
209.882 118.267 LE
206.882 121.267 LS
206.882 115.267 LE
206.169 126.569 LS
212.169 126.569 LE
209.169 129.569 LS
209.169 123.569 LE
208.456 134.646 LS
214.456 134.646 LE
211.456 137.646 LS
211.456 131.646 LE
210.743 142.479 LS
216.743 142.479 LE
213.743 145.479 LS
213.743 139.479 LE
213.03 150.049 LS
219.03 150.049 LE
216.03 153.049 LS
216.03 147.049 LE
215.316 157.337 LS
221.316 157.337 LE
218.316 160.337 LS
218.316 154.337 LE
217.603 164.324 LS
223.603 164.324 LE
220.603 167.324 LS
220.603 161.324 LE
219.89 170.992 LS
225.89 170.992 LE
222.89 173.992 LS
222.89 167.992 LE
222.177 177.326 LS
228.177 177.326 LE
225.177 180.326 LS
225.177 174.326 LE
224.464 183.31 LS
230.464 183.31 LE
227.464 186.31 LS
227.464 180.31 LE
226.751 188.928 LS
232.751 188.928 LE
229.751 191.928 LS
229.751 185.928 LE
229.038 194.166 LS
235.038 194.166 LE
232.038 197.166 LS
232.038 191.166 LE
231.325 199.011 LS
237.325 199.011 LE
234.325 202.011 LS
234.325 196.011 LE
233.611 203.452 LS
239.611 203.452 LE
236.611 206.452 LS
236.611 200.452 LE
235.898 207.477 LS
241.898 207.477 LE
238.898 210.477 LS
238.898 204.477 LE
238.185 211.076 LS
244.185 211.076 LE
241.185 214.076 LS
241.185 208.076 LE
240.472 214.24 LS
246.472 214.24 LE
243.472 217.24 LS
243.472 211.24 LE
242.759 216.961 LS
248.759 216.961 LE
245.759 219.961 LS
245.759 213.961 LE
245.046 219.232 LS
251.046 219.232 LE
248.046 222.232 LS
248.046 216.232 LE
247.333 221.048 LS
253.333 221.048 LE
250.333 224.048 LS
250.333 218.048 LE
249.62 222.404 LS
255.62 222.404 LE
252.62 225.404 LS
252.62 219.404 LE
251.907 223.297 LS
257.907 223.297 LE
254.907 226.297 LS
254.907 220.297 LE
254.193 223.724 LS
260.193 223.724 LE
257.193 226.724 LS
257.193 220.724 LE
256.48 223.685 LS
262.48 223.685 LE
259.48 226.685 LS
259.48 220.685 LE
258.767 223.179 LS
264.767 223.179 LE
261.767 226.179 LS
261.767 220.179 LE
261.054 222.208 LS
267.054 222.208 LE
264.054 225.208 LS
264.054 219.208 LE
263.341 220.775 LS
269.341 220.775 LE
266.341 223.775 LS
266.341 217.775 LE
265.628 218.882 LS
271.628 218.882 LE
268.628 221.882 LS
268.628 215.882 LE
267.915 216.534 LS
273.915 216.534 LE
270.915 219.534 LS
270.915 213.534 LE
270.202 213.738 LS
276.202 213.738 LE
273.202 216.738 LS
273.202 210.738 LE
272.489 210.501 LS
278.489 210.501 LE
275.489 213.501 LS
275.489 207.501 LE
274.775 206.83 LS
280.775 206.83 LE
277.775 209.83 LS
277.775 203.83 LE
277.062 202.734 LS
283.062 202.734 LE
280.062 205.734 LS
280.062 199.734 LE
279.349 198.224 LS
285.349 198.224 LE
282.349 201.224 LS
282.349 195.224 LE
281.636 193.312 LS
287.636 193.312 LE
284.636 196.312 LS
284.636 190.312 LE
283.923 188.009 LS
289.923 188.009 LE
286.923 191.009 LS
286.923 185.009 LE
286.21 182.329 LS
292.21 182.329 LE
289.21 185.329 LS
289.21 179.329 LE
288.497 176.285 LS
294.497 176.285 LE
291.497 179.285 LS
291.497 173.285 LE
290.784 169.894 LS
296.784 169.894 LE
293.784 172.894 LS
293.784 166.894 LE
293.07 163.171 LS
299.07 163.171 LE
296.07 166.171 LS
296.07 160.171 LE
295.357 156.132 LS
301.357 156.132 LE
298.357 159.132 LS
298.357 153.132 LE
297.644 148.796 LS
303.644 148.796 LE
300.644 151.796 LS
300.644 145.796 LE
299.931 141.18 LS
305.931 141.18 LE
302.931 144.18 LS
302.931 138.18 LE
302.218 133.304 LS
308.218 133.304 LE
305.218 136.304 LS
305.218 130.304 LE
304.505 125.188 LS
310.505 125.188 LE
307.505 128.188 LS
307.505 122.188 LE
306.792 116.851 LS
312.792 116.851 LE
309.792 119.851 LS
309.792 113.851 LE
309.079 108.315 LS
315.079 108.315 LE
312.079 111.315 LS
312.079 105.315 LE
311.366 99.6008 LS
317.366 99.6008 LE
314.366 102.601 LS
314.366 96.6008 LE
313.652 90.7302 LS
319.652 90.7302 LE
316.652 93.7302 LS
316.652 87.7302 LE
315.939 81.7255 LS
321.939 81.7255 LE
318.939 84.7255 LS
318.939 78.7255 LE
318.226 72.6091 LS
324.226 72.6091 LE
321.226 75.6091 LS
321.226 69.6091 LE
320.513 63.4038 LS
326.513 63.4038 LE
323.513 66.4038 LS
323.513 60.4038 LE
grestore
grestore
showpage
cleartomark
%%PageTrailer
%%Trailer
end
%%EOF
