%!PS-Adobe-3.0 EPSF-3.0
%%Title: gl2ps_renderer figure
%%Creator: GL2PS 1.4.0, (C) 1999-2017 C. Geuzaine
%%For: Octave
%%CreationDate: Mon Feb  3 11:34:55 2020
%%LanguageLevel: 3
%%DocumentData: Clean7Bit
%%Pages: 1
%%BoundingBox: 0 0 360 252
%%EndComments
%%BeginProlog
/gl2psdict 64 dict def gl2psdict begin
/tryPS3shading false def % set to false to force subdivision
/rThreshold 0.064 def % red component subdivision threshold
/gThreshold 0.034 def % green component subdivision threshold
/bThreshold 0.1 def % blue component subdivision threshold
/BD { bind def } bind def
/C  { setrgbcolor } BD
/G  { 0.082 mul exch 0.6094 mul add exch 0.3086 mul add neg 1.0 add setgray } BD
/W  { setlinewidth } BD
/LC  { setlinecap } BD
/LJ  { setlinejoin } BD
/FC { findfont exch /SH exch def SH scalefont setfont } BD
/SW { dup stringwidth pop } BD
/S  { FC moveto show } BD
/SBC{ FC moveto SW -2 div 0 rmoveto show } BD
/SBR{ FC moveto SW neg 0 rmoveto show } BD
/SCL{ FC moveto 0 SH -2 div rmoveto show } BD
/SCC{ FC moveto SW -2 div SH -2 div rmoveto show } BD
/SCR{ FC moveto SW neg SH -2 div rmoveto show } BD
/STL{ FC moveto 0 SH neg rmoveto show } BD
/STC{ FC moveto SW -2 div SH neg rmoveto show } BD
/STR{ FC moveto SW neg SH neg rmoveto show } BD
/FCT { FC translate 0 0 } BD
/SR  { gsave FCT moveto rotate show grestore } BD
/SRX  { gsave FCT moveto rotate xshow grestore } BD
/SBCR{ gsave FCT moveto rotate SW -2 div 0 rmoveto show grestore } BD
/SBRR{ gsave FCT moveto rotate SW neg 0 rmoveto show grestore } BD
/SCLR{ gsave FCT moveto rotate 0 SH -2 div rmoveto show grestore} BD
/SCCR{ gsave FCT moveto rotate SW -2 div SH -2 div rmoveto show grestore} BD
/SCRR{ gsave FCT moveto rotate SW neg SH -2 div rmoveto show grestore} BD
/STLR{ gsave FCT moveto rotate 0 SH neg rmoveto show grestore } BD
/STCR{ gsave FCT moveto rotate SW -2 div SH neg rmoveto show grestore } BD
/STRR{ gsave FCT moveto rotate SW neg SH neg rmoveto show grestore } BD
/P  { newpath 0.0 360.0 arc closepath fill } BD
/LS { newpath moveto } BD
/L  { lineto } BD
/LE { lineto stroke } BD
/T  { newpath moveto lineto lineto closepath fill } BD
/STshfill {
      /b1 exch def /g1 exch def /r1 exch def /y1 exch def /x1 exch def
      /b2 exch def /g2 exch def /r2 exch def /y2 exch def /x2 exch def
      /b3 exch def /g3 exch def /r3 exch def /y3 exch def /x3 exch def
      gsave << /ShadingType 4 /ColorSpace [/DeviceRGB]
      /DataSource [ 0 x1 y1 r1 g1 b1 0 x2 y2 r2 g2 b2 0 x3 y3 r3 g3 b3 ] >>
      shfill grestore } BD
/Tm { 3 -1 roll 8 -1 roll 13 -1 roll add add 3 div
      3 -1 roll 7 -1 roll 11 -1 roll add add 3 div
      3 -1 roll 6 -1 roll 9 -1 roll add add 3 div C T } BD
/STsplit {
      4 index 15 index add 0.5 mul
      4 index 15 index add 0.5 mul
      4 index 15 index add 0.5 mul
      4 index 15 index add 0.5 mul
      4 index 15 index add 0.5 mul
      5 copy 5 copy 25 15 roll
      9 index 30 index add 0.5 mul
      9 index 30 index add 0.5 mul
      9 index 30 index add 0.5 mul
      9 index 30 index add 0.5 mul
      9 index 30 index add 0.5 mul
      5 copy 5 copy 35 5 roll 25 5 roll 15 5 roll
      4 index 10 index add 0.5 mul
      4 index 10 index add 0.5 mul
      4 index 10 index add 0.5 mul
      4 index 10 index add 0.5 mul
      4 index 10 index add 0.5 mul
      5 copy 5 copy 40 5 roll 25 5 roll 15 5 roll 25 5 roll
      STnoshfill STnoshfill STnoshfill STnoshfill } BD
/STnoshfill {
      2 index 8 index sub abs rThreshold gt
      { STsplit }
      { 1 index 7 index sub abs gThreshold gt
        { STsplit }
        { dup 6 index sub abs bThreshold gt
          { STsplit }
          { 2 index 13 index sub abs rThreshold gt
            { STsplit }
            { 1 index 12 index sub abs gThreshold gt
              { STsplit }
              { dup 11 index sub abs bThreshold gt
                { STsplit }
                { 7 index 13 index sub abs rThreshold gt
                  { STsplit }
                  { 6 index 12 index sub abs gThreshold gt
                    { STsplit }
                    { 5 index 11 index sub abs bThreshold gt
                      { STsplit }
                      { Tm }
                      ifelse }
                    ifelse }
                  ifelse }
                ifelse }
              ifelse }
            ifelse }
          ifelse }
        ifelse }
      ifelse } BD
tryPS3shading
{ /shfill where
  { /ST { STshfill } BD }
  { /ST { STnoshfill } BD }
  ifelse }
{ /ST { STnoshfill } BD }
ifelse
end
%%EndProlog
%%BeginSetup
/DeviceRGB setcolorspace
gl2psdict begin
%%EndSetup
%%Page: 1 1
%%BeginPageSetup
%%EndPageSetup
mark
gsave
1.0 1.0 scale
1 1 1 C
newpath 0 0 moveto 360 0 lineto 360 252 lineto 0 252 lineto
closepath fill
gsave
1.0 1.0 scale
1 1 1 C
newpath 0 0 moveto 360 0 lineto 360 252 lineto 0 252 lineto
closepath fill
newpath 0 0 moveto 360 0 lineto 360 252 lineto 0 252 lineto
closepath clip
1 1 1 C
46.8 233.1 325.8 27.72 46.8 27.72 T
46.8 233.1 325.8 233.1 325.8 27.72 T
0.5 W
0.15 0.15 0.15 C
46.8 27.72 LS
46.8 30.5152 LE
46.8 233.1 LS
46.8 230.305 LE
102.6 27.72 LS
102.6 30.5152 LE
102.6 233.1 LS
102.6 230.305 LE
158.4 27.72 LS
158.4 30.5152 LE
158.4 233.1 LS
158.4 230.305 LE
214.2 27.72 LS
214.2 30.5152 LE
214.2 233.1 LS
214.2 230.305 LE
270 27.72 LS
270 30.5152 LE
270 233.1 LS
270 230.305 LE
325.8 27.72 LS
325.8 30.5152 LE
325.8 233.1 LS
325.8 230.305 LE
gsave
0.14902 0.14902 0.14902 C
(0) [10] 0 43.8 12.2061 10 /Helvetica SRX
grestore

gsave
0.14902 0.14902 0.14902 C
(0.2) [6 3 10] 0 95.1 12.2061 10 /Helvetica SRX
grestore

gsave
0.14902 0.14902 0.14902 C
(0.4) [6 3 10] 0 150.9 12.2061 10 /Helvetica SRX
grestore

gsave
0.14902 0.14902 0.14902 C
(0.6) [6 3 10] 0 206.7 12.2061 10 /Helvetica SRX
grestore

gsave
0.14902 0.14902 0.14902 C
(0.8) [6 3 10] 0 262.5 12.2061 10 /Helvetica SRX
grestore

gsave
0.14902 0.14902 0.14902 C
(1) [10] 0 322.8 12.2061 10 /Helvetica SRX
grestore

46.8 27.72 LS
49.59 27.72 LE
325.8 27.72 LS
323.01 27.72 LE
46.8 68.796 LS
49.59 68.796 LE
325.8 68.796 LS
323.01 68.796 LE
46.8 109.872 LS
49.59 109.872 LE
325.8 109.872 LS
323.01 109.872 LE
46.8 150.948 LS
49.59 150.948 LE
325.8 150.948 LS
323.01 150.948 LE
46.8 192.024 LS
49.59 192.024 LE
325.8 192.024 LS
323.01 192.024 LE
46.8 233.1 LS
49.59 233.1 LE
325.8 233.1 LS
323.01 233.1 LE
gsave
0.14902 0.14902 0.14902 C
(0) [10] 0 35.8 23.72 10 /Helvetica SRX
grestore

gsave
0.14902 0.14902 0.14902 C
(0.2) [6 3 10] 0 26.8 64.796 10 /Helvetica SRX
grestore

gsave
0.14902 0.14902 0.14902 C
(0.4) [6 3 10] 0 26.8 105.872 10 /Helvetica SRX
grestore

gsave
0.14902 0.14902 0.14902 C
(0.6) [6 3 10] 0 26.8 146.948 10 /Helvetica SRX
grestore

gsave
0.14902 0.14902 0.14902 C
(0.8) [6 3 10] 0 26.8 188.024 10 /Helvetica SRX
grestore

gsave
0.14902 0.14902 0.14902 C
(1) [10] 0 35.8 229.1 10 /Helvetica SRX
grestore

2 LC
[16 0] 0 setdash
46.8 27.72 LS
325.8 27.72 LE
46.8 233.1 LS
325.8 233.1 LE
46.8 27.72 LS
46.8 233.1 LE
325.8 27.72 LS
325.8 233.1 LE
0 LC
1 LJ
[] 0 setdash
0 0 1 C
259.893 184.277 LS
266.854 221.86 L
283.234 116.602 L
259.893 184.277 L
172.208 175.91 L
266.854 221.86 L
259.893 184.277 L
185.026 119.194 L
283.234 116.602 L
259.893 184.277 L
185.026 119.194 L
172.208 175.91 L
259.893 184.277 LE
84.2876 199.369 LS
185.026 119.194 L
54.709 34.0026 L
84.2876 199.369 L
185.026 119.194 L
172.208 175.91 L
84.2876 199.369 LE
228.594 74.7032 LS
185.026 119.194 L
283.234 116.602 L
228.594 74.7032 LE
72.9868 212.855 LS
172.208 175.91 L
266.854 221.86 L
72.9868 212.855 L
84.2876 199.369 L
172.208 175.91 L
72.9868 212.855 L
84.2876 199.369 L
54.709 34.0026 L
72.9868 212.855 LE
117.964 28.1525 LS
185.026 119.194 L
54.709 34.0026 L
117.964 28.1525 L
228.594 74.7032 L
185.026 119.194 L
117.964 28.1525 LE
2 LC
0 LJ
1 0 0 C
81.2876 199.369 LS
87.2876 199.369 LE
84.2876 202.369 LS
84.2876 196.369 LE
82.1663 201.491 LS
86.4089 197.248 LE
82.1663 197.248 LS
86.4089 201.491 LE
280.234 116.602 LS
286.234 116.602 LE
283.234 119.602 LS
283.234 113.602 LE
281.113 118.723 LS
285.355 114.48 LE
281.113 114.48 LS
285.355 118.723 LE
256.893 184.277 LS
262.893 184.277 LE
259.893 187.277 LS
259.893 181.277 LE
257.772 186.398 LS
262.014 182.156 LE
257.772 182.156 LS
262.014 186.398 LE
114.964 28.1525 LS
120.964 28.1525 LE
117.964 31.1525 LS
117.964 25.1525 LE
115.843 30.2738 LS
120.086 26.0312 LE
115.843 26.0312 LS
120.086 30.2738 LE
182.026 119.194 LS
188.026 119.194 LE
185.026 122.194 LS
185.026 116.194 LE
182.905 121.315 LS
187.148 117.072 LE
182.905 117.072 LS
187.148 121.315 LE
169.208 175.91 LS
175.208 175.91 LE
172.208 178.91 LS
172.208 172.91 LE
170.087 178.031 LS
174.329 173.789 LE
170.087 173.789 LS
174.329 178.031 LE
225.594 74.7032 LS
231.594 74.7032 LE
228.594 77.7032 LS
228.594 71.7032 LE
226.473 76.8245 LS
230.716 72.5819 LE
226.473 72.5819 LS
230.716 76.8245 LE
263.854 221.86 LS
269.854 221.86 LE
266.854 224.86 LS
266.854 218.86 LE
264.733 223.981 LS
268.975 219.738 LE
264.733 219.738 LS
268.975 223.981 LE
69.9868 212.855 LS
75.9868 212.855 LE
72.9868 215.855 LS
72.9868 209.855 LE
70.8655 214.976 LS
75.1081 210.734 LE
70.8655 210.734 LS
75.1081 214.976 LE
51.709 34.0025 LS
57.709 34.0025 LE
54.709 37.0025 LS
54.709 31.0025 LE
52.5876 36.1239 LS
56.8303 31.8812 LE
52.5876 31.8812 LS
56.8303 36.1239 LE
grestore
grestore
showpage
cleartomark
%%PageTrailer
%%Trailer
end
%%EOF
