%!PS-Adobe-3.0 EPSF-3.0
%%Title: gl2ps_renderer figure
%%Creator: GL2PS 1.4.0, (C) 1999-2017 C. Geuzaine
%%For: Octave
%%CreationDate: Mon Feb  3 11:35:00 2020
%%LanguageLevel: 3
%%DocumentData: Clean7Bit
%%Pages: 1
%%BoundingBox: 0 0 360 252
%%EndComments
%%BeginProlog
/gl2psdict 64 dict def gl2psdict begin
/tryPS3shading false def % set to false to force subdivision
/rThreshold 0.064 def % red component subdivision threshold
/gThreshold 0.034 def % green component subdivision threshold
/bThreshold 0.1 def % blue component subdivision threshold
/BD { bind def } bind def
/C  { setrgbcolor } BD
/G  { 0.082 mul exch 0.6094 mul add exch 0.3086 mul add neg 1.0 add setgray } BD
/W  { setlinewidth } BD
/LC  { setlinecap } BD
/LJ  { setlinejoin } BD
/FC { findfont exch /SH exch def SH scalefont setfont } BD
/SW { dup stringwidth pop } BD
/S  { FC moveto show } BD
/SBC{ FC moveto SW -2 div 0 rmoveto show } BD
/SBR{ FC moveto SW neg 0 rmoveto show } BD
/SCL{ FC moveto 0 SH -2 div rmoveto show } BD
/SCC{ FC moveto SW -2 div SH -2 div rmoveto show } BD
/SCR{ FC moveto SW neg SH -2 div rmoveto show } BD
/STL{ FC moveto 0 SH neg rmoveto show } BD
/STC{ FC moveto SW -2 div SH neg rmoveto show } BD
/STR{ FC moveto SW neg SH neg rmoveto show } BD
/FCT { FC translate 0 0 } BD
/SR  { gsave FCT moveto rotate show grestore } BD
/SRX  { gsave FCT moveto rotate xshow grestore } BD
/SBCR{ gsave FCT moveto rotate SW -2 div 0 rmoveto show grestore } BD
/SBRR{ gsave FCT moveto rotate SW neg 0 rmoveto show grestore } BD
/SCLR{ gsave FCT moveto rotate 0 SH -2 div rmoveto show grestore} BD
/SCCR{ gsave FCT moveto rotate SW -2 div SH -2 div rmoveto show grestore} BD
/SCRR{ gsave FCT moveto rotate SW neg SH -2 div rmoveto show grestore} BD
/STLR{ gsave FCT moveto rotate 0 SH neg rmoveto show grestore } BD
/STCR{ gsave FCT moveto rotate SW -2 div SH neg rmoveto show grestore } BD
/STRR{ gsave FCT moveto rotate SW neg SH neg rmoveto show grestore } BD
/P  { newpath 0.0 360.0 arc closepath fill } BD
/LS { newpath moveto } BD
/L  { lineto } BD
/LE { lineto stroke } BD
/T  { newpath moveto lineto lineto closepath fill } BD
/STshfill {
      /b1 exch def /g1 exch def /r1 exch def /y1 exch def /x1 exch def
      /b2 exch def /g2 exch def /r2 exch def /y2 exch def /x2 exch def
      /b3 exch def /g3 exch def /r3 exch def /y3 exch def /x3 exch def
      gsave << /ShadingType 4 /ColorSpace [/DeviceRGB]
      /DataSource [ 0 x1 y1 r1 g1 b1 0 x2 y2 r2 g2 b2 0 x3 y3 r3 g3 b3 ] >>
      shfill grestore } BD
/Tm { 3 -1 roll 8 -1 roll 13 -1 roll add add 3 div
      3 -1 roll 7 -1 roll 11 -1 roll add add 3 div
      3 -1 roll 6 -1 roll 9 -1 roll add add 3 div C T } BD
/STsplit {
      4 index 15 index add 0.5 mul
      4 index 15 index add 0.5 mul
      4 index 15 index add 0.5 mul
      4 index 15 index add 0.5 mul
      4 index 15 index add 0.5 mul
      5 copy 5 copy 25 15 roll
      9 index 30 index add 0.5 mul
      9 index 30 index add 0.5 mul
      9 index 30 index add 0.5 mul
      9 index 30 index add 0.5 mul
      9 index 30 index add 0.5 mul
      5 copy 5 copy 35 5 roll 25 5 roll 15 5 roll
      4 index 10 index add 0.5 mul
      4 index 10 index add 0.5 mul
      4 index 10 index add 0.5 mul
      4 index 10 index add 0.5 mul
      4 index 10 index add 0.5 mul
      5 copy 5 copy 40 5 roll 25 5 roll 15 5 roll 25 5 roll
      STnoshfill STnoshfill STnoshfill STnoshfill } BD
/STnoshfill {
      2 index 8 index sub abs rThreshold gt
      { STsplit }
      { 1 index 7 index sub abs gThreshold gt
        { STsplit }
        { dup 6 index sub abs bThreshold gt
          { STsplit }
          { 2 index 13 index sub abs rThreshold gt
            { STsplit }
            { 1 index 12 index sub abs gThreshold gt
              { STsplit }
              { dup 11 index sub abs bThreshold gt
                { STsplit }
                { 7 index 13 index sub abs rThreshold gt
                  { STsplit }
                  { 6 index 12 index sub abs gThreshold gt
                    { STsplit }
                    { 5 index 11 index sub abs bThreshold gt
                      { STsplit }
                      { Tm }
                      ifelse }
                    ifelse }
                  ifelse }
                ifelse }
              ifelse }
            ifelse }
          ifelse }
        ifelse }
      ifelse } BD
tryPS3shading
{ /shfill where
  { /ST { STshfill } BD }
  { /ST { STnoshfill } BD }
  ifelse }
{ /ST { STnoshfill } BD }
ifelse
end
%%EndProlog
%%BeginSetup
/DeviceRGB setcolorspace
gl2psdict begin
%%EndSetup
%%Page: 1 1
%%BeginPageSetup
%%EndPageSetup
mark
gsave
1.0 1.0 scale
1 1 1 C
newpath 0 0 moveto 360 0 lineto 360 252 lineto 0 252 lineto
closepath fill
gsave
1.0 1.0 scale
1 1 1 C
newpath 0 0 moveto 360 0 lineto 360 252 lineto 0 252 lineto
closepath fill
newpath 0 0 moveto 360 0 lineto 360 252 lineto 0 252 lineto
closepath clip
1 1 1 C
46.8 233.1 325.8 27.72 46.8 27.72 T
46.8 233.1 325.8 233.1 325.8 27.72 T
0.5 W
0.15 0.15 0.15 C
46.8 27.72 LS
46.8 30.5152 LE
46.8 233.1 LS
46.8 230.305 LE
116.55 27.72 LS
116.55 30.5152 LE
116.55 233.1 LS
116.55 230.305 LE
186.3 27.72 LS
186.3 30.5152 LE
186.3 233.1 LS
186.3 230.305 LE
256.05 27.72 LS
256.05 30.5152 LE
256.05 233.1 LS
256.05 230.305 LE
325.8 27.72 LS
325.8 30.5152 LE
325.8 233.1 LS
325.8 230.305 LE
gsave
0.14902 0.14902 0.14902 C
(-2) [3 10] 0 42.3 12.2061 10 /Helvetica SRX
grestore

gsave
0.14902 0.14902 0.14902 C
(-1) [3 10] 0 112.05 12.2061 10 /Helvetica SRX
grestore

gsave
0.14902 0.14902 0.14902 C
(0) [10] 0 183.3 12.2061 10 /Helvetica SRX
grestore

gsave
0.14902 0.14902 0.14902 C
(1) [10] 0 253.05 12.2061 10 /Helvetica SRX
grestore

gsave
0.14902 0.14902 0.14902 C
(2) [10] 0 322.8 12.2061 10 /Helvetica SRX
grestore

46.8 27.72 LS
49.59 27.72 LE
325.8 27.72 LS
323.01 27.72 LE
46.8 79.065 LS
49.59 79.065 LE
325.8 79.065 LS
323.01 79.065 LE
46.8 130.41 LS
49.59 130.41 LE
325.8 130.41 LS
323.01 130.41 LE
46.8 181.755 LS
49.59 181.755 LE
325.8 181.755 LS
323.01 181.755 LE
46.8 233.1 LS
49.59 233.1 LE
325.8 233.1 LS
323.01 233.1 LE
gsave
0.14902 0.14902 0.14902 C
(-4) [3 10] 0 32.8 23.72 10 /Helvetica SRX
grestore

gsave
0.14902 0.14902 0.14902 C
(-2) [3 10] 0 32.8 75.065 10 /Helvetica SRX
grestore

gsave
0.14902 0.14902 0.14902 C
(0) [10] 0 35.8 126.41 10 /Helvetica SRX
grestore

gsave
0.14902 0.14902 0.14902 C
(2) [10] 0 35.8 177.755 10 /Helvetica SRX
grestore

gsave
0.14902 0.14902 0.14902 C
(4) [10] 0 35.8 229.1 10 /Helvetica SRX
grestore

2 LC
[16 0] 0 setdash
46.8 27.72 LS
325.8 27.72 LE
46.8 233.1 LS
325.8 233.1 LE
46.8 27.72 LS
46.8 233.1 LE
325.8 27.72 LS
325.8 233.1 LE
[] 0 setdash
1 0 0 C
45.5438 181.113 LS
51.5438 181.113 LE
48.5438 184.113 LS
48.5438 178.113 LE
46.4224 183.235 LS
50.6651 178.992 LE
46.4224 178.992 LS
50.6651 183.235 LE
47.2875 180.471 LS
53.2875 180.471 LE
50.2875 183.471 LS
50.2875 177.471 LE
48.1662 182.593 LS
52.4088 178.35 LE
48.1662 178.35 LS
52.4088 182.593 LE
49.0313 179.83 LS
55.0312 179.83 LE
52.0312 182.83 LS
52.0312 176.83 LE
49.9099 181.951 LS
54.1526 177.708 LE
49.9099 177.708 LS
54.1526 181.951 LE
50.775 179.188 LS
56.775 179.188 LE
53.775 182.188 LS
53.775 176.188 LE
51.6537 181.309 LS
55.8963 177.066 LE
51.6537 177.066 LS
55.8963 181.309 LE
52.5187 178.546 LS
58.5187 178.546 LE
55.5187 181.546 LS
55.5187 175.546 LE
53.3974 180.667 LS
57.6401 176.425 LE
53.3974 176.425 LS
57.6401 180.667 LE
54.2625 177.904 LS
60.2625 177.904 LE
57.2625 180.904 LS
57.2625 174.904 LE
55.1412 180.025 LS
59.3838 175.783 LE
55.1412 175.783 LS
59.3838 180.025 LE
56.0063 177.262 LS
62.0062 177.262 LE
59.0062 180.262 LS
59.0062 174.262 LE
56.8849 179.384 LS
61.1276 175.141 LE
56.8849 175.141 LS
61.1276 179.384 LE
57.75 176.62 LS
63.75 176.62 LE
60.75 179.62 LS
60.75 173.62 LE
58.6287 178.742 LS
62.8713 174.499 LE
58.6287 174.499 LS
62.8713 178.742 LE
59.4938 175.979 LS
65.4938 175.979 LE
62.4938 178.979 LS
62.4938 172.979 LE
60.3724 178.1 LS
64.6151 173.857 LE
60.3724 173.857 LS
64.6151 178.1 LE
61.2375 175.337 LS
67.2375 175.337 LE
64.2375 178.337 LS
64.2375 172.337 LE
62.1162 177.458 LS
66.3588 173.216 LE
62.1162 173.216 LS
66.3588 177.458 LE
62.9813 174.695 LS
68.9812 174.695 LE
65.9812 177.695 LS
65.9812 171.695 LE
63.8599 176.816 LS
68.1026 172.574 LE
63.8599 172.574 LS
68.1026 176.816 LE
64.725 174.053 LS
70.725 174.053 LE
67.725 177.053 LS
67.725 171.053 LE
65.6037 176.175 LS
69.8463 171.932 LE
65.6037 171.932 LS
69.8463 176.175 LE
66.4688 173.411 LS
72.4688 173.411 LE
69.4688 176.411 LS
69.4688 170.411 LE
67.3474 175.533 LS
71.5901 171.29 LE
67.3474 171.29 LS
71.5901 175.533 LE
68.2125 172.77 LS
74.2125 172.77 LE
71.2125 175.77 LS
71.2125 169.77 LE
69.0912 174.891 LS
73.3338 170.648 LE
69.0912 170.648 LS
73.3338 174.891 LE
69.9563 172.128 LS
75.9563 172.128 LE
72.9563 175.128 LS
72.9563 169.128 LE
70.8349 174.249 LS
75.0776 170.007 LE
70.8349 170.007 LS
75.0776 174.249 LE
71.7 171.486 LS
77.7 171.486 LE
74.7 174.486 LS
74.7 168.486 LE
72.5787 173.607 LS
76.8213 169.365 LE
72.5787 169.365 LS
76.8213 173.607 LE
73.4438 170.844 LS
79.4437 170.844 LE
76.4437 173.844 LS
76.4437 167.844 LE
74.3224 172.965 LS
78.5651 168.723 LE
74.3224 168.723 LS
78.5651 172.965 LE
75.1875 170.202 LS
81.1875 170.202 LE
78.1875 173.202 LS
78.1875 167.202 LE
76.0662 172.324 LS
80.3088 168.081 LE
76.0662 168.081 LS
80.3088 172.324 LE
76.9313 169.561 LS
82.9313 169.561 LE
79.9313 172.561 LS
79.9313 166.561 LE
77.8099 171.682 LS
82.0526 167.439 LE
77.8099 167.439 LS
82.0526 171.682 LE
78.675 168.919 LS
84.675 168.919 LE
81.675 171.919 LS
81.675 165.919 LE
79.5537 171.04 LS
83.7963 166.797 LE
79.5537 166.797 LS
83.7963 171.04 LE
80.4188 168.277 LS
86.4187 168.277 LE
83.4187 171.277 LS
83.4187 165.277 LE
81.2974 170.398 LS
85.5401 166.156 LE
81.2974 166.156 LS
85.5401 170.398 LE
82.1625 167.635 LS
88.1625 167.635 LE
85.1625 170.635 LS
85.1625 164.635 LE
83.0412 169.756 LS
87.2838 165.514 LE
83.0412 165.514 LS
87.2838 169.756 LE
83.9063 166.993 LS
89.9062 166.993 LE
86.9063 169.993 LS
86.9063 163.993 LE
84.7849 169.115 LS
89.0276 164.872 LE
84.7849 164.872 LS
89.0276 169.115 LE
85.65 166.352 LS
91.65 166.352 LE
88.65 169.352 LS
88.65 163.352 LE
86.5287 168.473 LS
90.7713 164.23 LE
86.5287 164.23 LS
90.7713 168.473 LE
87.3938 165.71 LS
93.3938 165.71 LE
90.3938 168.71 LS
90.3938 162.71 LE
88.2724 167.831 LS
92.5151 163.588 LE
88.2724 163.588 LS
92.5151 167.831 LE
89.1375 165.068 LS
95.1375 165.068 LE
92.1375 168.068 LS
92.1375 162.068 LE
90.0162 167.189 LS
94.2588 162.947 LE
90.0162 162.947 LS
94.2588 167.189 LE
90.8812 164.426 LS
96.8813 164.426 LE
93.8813 167.426 LS
93.8813 161.426 LE
91.7599 166.547 LS
96.0026 162.305 LE
91.7599 162.305 LS
96.0026 166.547 LE
92.625 163.784 LS
98.625 163.784 LE
95.625 166.784 LS
95.625 160.784 LE
93.5037 165.906 LS
97.7463 161.663 LE
93.5037 161.663 LS
97.7463 165.906 LE
94.3688 163.142 LS
100.369 163.142 LE
97.3688 166.142 LS
97.3688 160.142 LE
95.2474 165.264 LS
99.4901 161.021 LE
95.2474 161.021 LS
99.4901 165.264 LE
96.1125 162.501 LS
102.113 162.501 LE
99.1125 165.501 LS
99.1125 159.501 LE
96.9912 164.622 LS
101.234 160.379 LE
96.9912 160.379 LS
101.234 164.622 LE
97.8562 161.859 LS
103.856 161.859 LE
100.856 164.859 LS
100.856 158.859 LE
98.7349 163.98 LS
102.978 159.737 LE
98.7349 159.737 LS
102.978 163.98 LE
99.6 161.217 LS
105.6 161.217 LE
102.6 164.217 LS
102.6 158.217 LE
100.479 163.338 LS
104.721 159.096 LE
100.479 159.096 LS
104.721 163.338 LE
101.344 160.575 LS
107.344 160.575 LE
104.344 163.575 LS
104.344 157.575 LE
102.222 162.697 LS
106.465 158.454 LE
102.222 158.454 LS
106.465 162.697 LE
103.088 159.933 LS
109.088 159.933 LE
106.088 162.933 LS
106.088 156.933 LE
103.966 162.055 LS
108.209 157.812 LE
103.966 157.812 LS
108.209 162.055 LE
104.831 159.292 LS
110.831 159.292 LE
107.831 162.292 LS
107.831 156.292 LE
105.71 161.413 LS
109.953 157.17 LE
105.71 157.17 LS
109.953 161.413 LE
106.575 158.65 LS
112.575 158.65 LE
109.575 161.65 LS
109.575 155.65 LE
107.454 160.771 LS
111.696 156.528 LE
107.454 156.528 LS
111.696 160.771 LE
108.319 158.008 LS
114.319 158.008 LE
111.319 161.008 LS
111.319 155.008 LE
109.197 160.129 LS
113.44 155.887 LE
109.197 155.887 LS
113.44 160.129 LE
110.062 157.366 LS
116.063 157.366 LE
113.062 160.366 LS
113.062 154.366 LE
110.941 159.487 LS
115.184 155.245 LE
110.941 155.245 LS
115.184 159.487 LE
111.806 156.724 LS
117.806 156.724 LE
114.806 159.724 LS
114.806 153.724 LE
112.685 158.846 LS
116.928 154.603 LE
112.685 154.603 LS
116.928 158.846 LE
113.55 156.082 LS
119.55 156.082 LE
116.55 159.082 LS
116.55 153.082 LE
114.429 158.204 LS
118.671 153.961 LE
114.429 153.961 LS
118.671 158.204 LE
115.294 155.441 LS
121.294 155.441 LE
118.294 158.441 LS
118.294 152.441 LE
116.172 157.562 LS
120.415 153.319 LE
116.172 153.319 LS
120.415 157.562 LE
117.037 154.799 LS
123.038 154.799 LE
120.037 157.799 LS
120.037 151.799 LE
117.916 156.92 LS
122.159 152.678 LE
117.916 152.678 LS
122.159 156.92 LE
118.781 154.157 LS
124.781 154.157 LE
121.781 157.157 LS
121.781 151.157 LE
119.66 156.278 LS
123.903 152.036 LE
119.66 152.036 LS
123.903 156.278 LE
120.525 153.515 LS
126.525 153.515 LE
123.525 156.515 LS
123.525 150.515 LE
121.404 155.637 LS
125.646 151.394 LE
121.404 151.394 LS
125.646 155.637 LE
122.269 152.873 LS
128.269 152.873 LE
125.269 155.873 LS
125.269 149.873 LE
123.147 154.995 LS
127.39 150.752 LE
123.147 150.752 LS
127.39 154.995 LE
124.012 152.232 LS
130.012 152.232 LE
127.012 155.232 LS
127.012 149.232 LE
124.891 154.353 LS
129.134 150.11 LE
124.891 150.11 LS
129.134 154.353 LE
125.756 151.59 LS
131.756 151.59 LE
128.756 154.59 LS
128.756 148.59 LE
126.635 153.711 LS
130.878 149.468 LE
126.635 149.468 LS
130.878 153.711 LE
127.5 150.948 LS
133.5 150.948 LE
130.5 153.948 LS
130.5 147.948 LE
128.379 153.069 LS
132.621 148.827 LE
128.379 148.827 LS
132.621 153.069 LE
129.244 150.306 LS
135.244 150.306 LE
132.244 153.306 LS
132.244 147.306 LE
130.122 152.428 LS
134.365 148.185 LE
130.122 148.185 LS
134.365 152.428 LE
130.988 149.664 LS
136.988 149.664 LE
133.988 152.664 LS
133.988 146.664 LE
131.866 151.786 LS
136.109 147.543 LE
131.866 147.543 LS
136.109 151.786 LE
132.731 149.023 LS
138.731 149.023 LE
135.731 152.023 LS
135.731 146.023 LE
133.61 151.144 LS
137.853 146.901 LE
133.61 146.901 LS
137.853 151.144 LE
134.475 148.381 LS
140.475 148.381 LE
137.475 151.381 LS
137.475 145.381 LE
135.354 150.502 LS
139.596 146.259 LE
135.354 146.259 LS
139.596 150.502 LE
136.219 147.739 LS
142.219 147.739 LE
139.219 150.739 LS
139.219 144.739 LE
137.097 149.86 LS
141.34 145.618 LE
137.097 145.618 LS
141.34 149.86 LE
137.962 147.097 LS
143.962 147.097 LE
140.962 150.097 LS
140.962 144.097 LE
138.841 149.218 LS
143.084 144.976 LE
138.841 144.976 LS
143.084 149.218 LE
139.706 146.455 LS
145.706 146.455 LE
142.706 149.455 LS
142.706 143.455 LE
140.585 148.577 LS
144.828 144.334 LE
140.585 144.334 LS
144.828 148.577 LE
141.45 145.813 LS
147.45 145.813 LE
144.45 148.813 LS
144.45 142.813 LE
142.329 147.935 LS
146.571 143.692 LE
142.329 143.692 LS
146.571 147.935 LE
143.194 145.172 LS
149.194 145.172 LE
146.194 148.172 LS
146.194 142.172 LE
144.072 147.293 LS
148.315 143.05 LE
144.072 143.05 LS
148.315 147.293 LE
144.938 144.53 LS
150.938 144.53 LE
147.938 147.53 LS
147.938 141.53 LE
145.816 146.651 LS
150.059 142.409 LE
145.816 142.409 LS
150.059 146.651 LE
146.681 143.888 LS
152.681 143.888 LE
149.681 146.888 LS
149.681 140.888 LE
147.56 146.009 LS
151.803 141.767 LE
147.56 141.767 LS
151.803 146.009 LE
148.425 143.246 LS
154.425 143.246 LE
151.425 146.246 LS
151.425 140.246 LE
149.304 145.368 LS
153.546 141.125 LE
149.304 141.125 LS
153.546 145.368 LE
150.169 142.604 LS
156.169 142.604 LE
153.169 145.604 LS
153.169 139.604 LE
151.047 144.726 LS
155.29 140.483 LE
151.047 140.483 LS
155.29 144.726 LE
151.913 141.963 LS
157.913 141.963 LE
154.913 144.963 LS
154.913 138.963 LE
152.791 144.084 LS
157.034 139.841 LE
152.791 139.841 LS
157.034 144.084 LE
153.656 141.321 LS
159.656 141.321 LE
156.656 144.321 LS
156.656 138.321 LE
154.535 143.442 LS
158.778 139.199 LE
154.535 139.199 LS
158.778 143.442 LE
155.4 140.679 LS
161.4 140.679 LE
158.4 143.679 LS
158.4 137.679 LE
156.279 142.8 LS
160.521 138.558 LE
156.279 138.558 LS
160.521 142.8 LE
157.144 140.037 LS
163.144 140.037 LE
160.144 143.037 LS
160.144 137.037 LE
158.022 142.159 LS
162.265 137.916 LE
158.022 137.916 LS
162.265 142.159 LE
158.887 139.395 LS
164.887 139.395 LE
161.887 142.395 LS
161.887 136.395 LE
159.766 141.517 LS
164.009 137.274 LE
159.766 137.274 LS
164.009 141.517 LE
160.631 138.754 LS
166.631 138.754 LE
163.631 141.754 LS
163.631 135.754 LE
161.51 140.875 LS
165.753 136.632 LE
161.51 136.632 LS
165.753 140.875 LE
162.375 138.112 LS
168.375 138.112 LE
165.375 141.112 LS
165.375 135.112 LE
163.254 140.233 LS
167.496 135.99 LE
163.254 135.99 LS
167.496 140.233 LE
164.119 137.47 LS
170.119 137.47 LE
167.119 140.47 LS
167.119 134.47 LE
164.997 139.591 LS
169.24 135.349 LE
164.997 135.349 LS
169.24 139.591 LE
165.863 136.828 LS
171.863 136.828 LE
168.863 139.828 LS
168.863 133.828 LE
166.741 138.949 LS
170.984 134.707 LE
166.741 134.707 LS
170.984 138.949 LE
167.606 136.186 LS
173.606 136.186 LE
170.606 139.186 LS
170.606 133.186 LE
168.485 138.308 LS
172.728 134.065 LE
168.485 134.065 LS
172.728 138.308 LE
169.35 135.544 LS
175.35 135.544 LE
172.35 138.544 LS
172.35 132.544 LE
170.229 137.666 LS
174.471 133.423 LE
170.229 133.423 LS
174.471 137.666 LE
171.094 134.903 LS
177.094 134.903 LE
174.094 137.903 LS
174.094 131.903 LE
171.972 137.024 LS
176.215 132.781 LE
171.972 132.781 LS
176.215 137.024 LE
172.837 134.261 LS
178.837 134.261 LE
175.837 137.261 LS
175.837 131.261 LE
173.716 136.382 LS
177.959 132.14 LE
173.716 132.14 LS
177.959 136.382 LE
174.581 133.619 LS
180.581 133.619 LE
177.581 136.619 LS
177.581 130.619 LE
175.46 135.74 LS
179.703 131.498 LE
175.46 131.498 LS
179.703 135.74 LE
176.325 132.977 LS
182.325 132.977 LE
179.325 135.977 LS
179.325 129.977 LE
177.204 135.099 LS
181.446 130.856 LE
177.204 130.856 LS
181.446 135.099 LE
178.069 132.335 LS
184.069 132.335 LE
181.069 135.335 LS
181.069 129.335 LE
178.947 134.457 LS
183.19 130.214 LE
178.947 130.214 LS
183.19 134.457 LE
179.812 131.694 LS
185.812 131.694 LE
182.812 134.694 LS
182.812 128.694 LE
180.691 133.815 LS
184.934 129.572 LE
180.691 129.572 LS
184.934 133.815 LE
181.556 131.052 LS
187.556 131.052 LE
184.556 134.052 LS
184.556 128.052 LE
182.435 133.173 LS
186.678 128.93 LE
182.435 128.93 LS
186.678 133.173 LE
183.3 130.41 LS
189.3 130.41 LE
186.3 133.41 LS
186.3 127.41 LE
184.179 132.531 LS
188.421 128.289 LE
184.179 128.289 LS
188.421 132.531 LE
185.044 129.768 LS
191.044 129.768 LE
188.044 132.768 LS
188.044 126.768 LE
185.922 131.889 LS
190.165 127.647 LE
185.922 127.647 LS
190.165 131.889 LE
186.788 129.126 LS
192.788 129.126 LE
189.788 132.126 LS
189.788 126.126 LE
187.666 131.248 LS
191.909 127.005 LE
187.666 127.005 LS
191.909 131.248 LE
188.531 128.485 LS
194.531 128.485 LE
191.531 131.485 LS
191.531 125.485 LE
189.41 130.606 LS
193.653 126.363 LE
189.41 126.363 LS
193.653 130.606 LE
190.275 127.843 LS
196.275 127.843 LE
193.275 130.843 LS
193.275 124.843 LE
191.154 129.964 LS
195.396 125.721 LE
191.154 125.721 LS
195.396 129.964 LE
192.019 127.201 LS
198.019 127.201 LE
195.019 130.201 LS
195.019 124.201 LE
192.897 129.322 LS
197.14 125.08 LE
192.897 125.08 LS
197.14 129.322 LE
193.762 126.559 LS
199.762 126.559 LE
196.762 129.559 LS
196.762 123.559 LE
194.641 128.68 LS
198.884 124.438 LE
194.641 124.438 LS
198.884 128.68 LE
195.506 125.917 LS
201.506 125.917 LE
198.506 128.917 LS
198.506 122.917 LE
196.385 128.039 LS
200.628 123.796 LE
196.385 123.796 LS
200.628 128.039 LE
197.25 125.275 LS
203.25 125.275 LE
200.25 128.275 LS
200.25 122.275 LE
198.129 127.397 LS
202.371 123.154 LE
198.129 123.154 LS
202.371 127.397 LE
198.994 124.634 LS
204.994 124.634 LE
201.994 127.634 LS
201.994 121.634 LE
199.872 126.755 LS
204.115 122.512 LE
199.872 122.512 LS
204.115 126.755 LE
200.738 123.992 LS
206.738 123.992 LE
203.738 126.992 LS
203.738 120.992 LE
201.616 126.113 LS
205.859 121.871 LE
201.616 121.871 LS
205.859 126.113 LE
202.481 123.35 LS
208.481 123.35 LE
205.481 126.35 LS
205.481 120.35 LE
203.36 125.471 LS
207.603 121.229 LE
203.36 121.229 LS
207.603 125.471 LE
204.225 122.708 LS
210.225 122.708 LE
207.225 125.708 LS
207.225 119.708 LE
205.104 124.83 LS
209.346 120.587 LE
205.104 120.587 LS
209.346 124.83 LE
205.969 122.066 LS
211.969 122.066 LE
208.969 125.066 LS
208.969 119.066 LE
206.847 124.188 LS
211.09 119.945 LE
206.847 119.945 LS
211.09 124.188 LE
207.712 121.425 LS
213.712 121.425 LE
210.712 124.425 LS
210.712 118.425 LE
208.591 123.546 LS
212.834 119.303 LE
208.591 119.303 LS
212.834 123.546 LE
209.456 120.783 LS
215.456 120.783 LE
212.456 123.783 LS
212.456 117.783 LE
210.335 122.904 LS
214.578 118.661 LE
210.335 118.661 LS
214.578 122.904 LE
211.2 120.141 LS
217.2 120.141 LE
214.2 123.141 LS
214.2 117.141 LE
212.079 122.262 LS
216.321 118.02 LE
212.079 118.02 LS
216.321 122.262 LE
212.944 119.499 LS
218.944 119.499 LE
215.944 122.499 LS
215.944 116.499 LE
213.822 121.621 LS
218.065 117.378 LE
213.822 117.378 LS
218.065 121.621 LE
214.688 118.857 LS
220.688 118.857 LE
217.688 121.857 LS
217.688 115.857 LE
215.566 120.979 LS
219.809 116.736 LE
215.566 116.736 LS
219.809 120.979 LE
216.431 118.216 LS
222.431 118.216 LE
219.431 121.216 LS
219.431 115.216 LE
217.31 120.337 LS
221.553 116.094 LE
217.31 116.094 LS
221.553 120.337 LE
218.175 117.574 LS
224.175 117.574 LE
221.175 120.574 LS
221.175 114.574 LE
219.054 119.695 LS
223.296 115.452 LE
219.054 115.452 LS
223.296 119.695 LE
219.919 116.932 LS
225.919 116.932 LE
222.919 119.932 LS
222.919 113.932 LE
220.797 119.053 LS
225.04 114.811 LE
220.797 114.811 LS
225.04 119.053 LE
221.663 116.29 LS
227.663 116.29 LE
224.663 119.29 LS
224.663 113.29 LE
222.541 118.411 LS
226.784 114.169 LE
222.541 114.169 LS
226.784 118.411 LE
223.406 115.648 LS
229.406 115.648 LE
226.406 118.648 LS
226.406 112.648 LE
224.285 117.77 LS
228.528 113.527 LE
224.285 113.527 LS
228.528 117.77 LE
225.15 115.006 LS
231.15 115.006 LE
228.15 118.006 LS
228.15 112.006 LE
226.029 117.128 LS
230.271 112.885 LE
226.029 112.885 LS
230.271 117.128 LE
226.894 114.365 LS
232.894 114.365 LE
229.894 117.365 LS
229.894 111.365 LE
227.772 116.486 LS
232.015 112.243 LE
227.772 112.243 LS
232.015 116.486 LE
228.637 113.723 LS
234.637 113.723 LE
231.637 116.723 LS
231.637 110.723 LE
229.516 115.844 LS
233.759 111.602 LE
229.516 111.602 LS
233.759 115.844 LE
230.381 113.081 LS
236.381 113.081 LE
233.381 116.081 LS
233.381 110.081 LE
231.26 115.202 LS
235.503 110.96 LE
231.26 110.96 LS
235.503 115.202 LE
232.125 112.439 LS
238.125 112.439 LE
235.125 115.439 LS
235.125 109.439 LE
233.004 114.561 LS
237.246 110.318 LE
233.004 110.318 LS
237.246 114.561 LE
233.869 111.797 LS
239.869 111.797 LE
236.869 114.797 LS
236.869 108.797 LE
234.747 113.919 LS
238.99 109.676 LE
234.747 109.676 LS
238.99 113.919 LE
235.613 111.156 LS
241.613 111.156 LE
238.613 114.156 LS
238.613 108.156 LE
236.491 113.277 LS
240.734 109.034 LE
236.491 109.034 LS
240.734 113.277 LE
237.356 110.514 LS
243.356 110.514 LE
240.356 113.514 LS
240.356 107.514 LE
238.235 112.635 LS
242.478 108.392 LE
238.235 108.392 LS
242.478 112.635 LE
239.1 109.872 LS
245.1 109.872 LE
242.1 112.872 LS
242.1 106.872 LE
239.979 111.993 LS
244.221 107.751 LE
239.979 107.751 LS
244.221 111.993 LE
240.844 109.23 LS
246.844 109.23 LE
243.844 112.23 LS
243.844 106.23 LE
241.722 111.352 LS
245.965 107.109 LE
241.722 107.109 LS
245.965 111.352 LE
242.587 108.588 LS
248.588 108.588 LE
245.587 111.588 LS
245.587 105.588 LE
243.466 110.71 LS
247.709 106.467 LE
243.466 106.467 LS
247.709 110.71 LE
244.331 107.947 LS
250.331 107.947 LE
247.331 110.947 LS
247.331 104.947 LE
245.21 110.068 LS
249.453 105.825 LE
245.21 105.825 LS
249.453 110.068 LE
246.075 107.305 LS
252.075 107.305 LE
249.075 110.305 LS
249.075 104.305 LE
246.954 109.426 LS
251.196 105.183 LE
246.954 105.183 LS
251.196 109.426 LE
247.819 106.663 LS
253.819 106.663 LE
250.819 109.663 LS
250.819 103.663 LE
248.697 108.784 LS
252.94 104.542 LE
248.697 104.542 LS
252.94 108.784 LE
249.562 106.021 LS
255.563 106.021 LE
252.563 109.021 LS
252.563 103.021 LE
250.441 108.142 LS
254.684 103.9 LE
250.441 103.9 LS
254.684 108.142 LE
251.306 105.379 LS
257.306 105.379 LE
254.306 108.379 LS
254.306 102.379 LE
252.185 107.501 LS
256.428 103.258 LE
252.185 103.258 LS
256.428 107.501 LE
253.05 104.737 LS
259.05 104.737 LE
256.05 107.737 LS
256.05 101.737 LE
253.929 106.859 LS
258.171 102.616 LE
253.929 102.616 LS
258.171 106.859 LE
254.794 104.096 LS
260.794 104.096 LE
257.794 107.096 LS
257.794 101.096 LE
255.672 106.217 LS
259.915 101.974 LE
255.672 101.974 LS
259.915 106.217 LE
256.538 103.454 LS
262.538 103.454 LE
259.538 106.454 LS
259.538 100.454 LE
257.416 105.575 LS
261.659 101.333 LE
257.416 101.333 LS
261.659 105.575 LE
258.281 102.812 LS
264.281 102.812 LE
261.281 105.812 LS
261.281 99.812 LE
259.16 104.933 LS
263.403 100.691 LE
259.16 100.691 LS
263.403 104.933 LE
260.025 102.17 LS
266.025 102.17 LE
263.025 105.17 LS
263.025 99.1702 LE
260.904 104.292 LS
265.146 100.049 LE
260.904 100.049 LS
265.146 104.292 LE
261.769 101.528 LS
267.769 101.528 LE
264.769 104.528 LS
264.769 98.5284 LE
262.647 103.65 LS
266.89 99.4071 LE
262.647 99.4071 LS
266.89 103.65 LE
263.513 100.887 LS
269.513 100.887 LE
266.513 103.887 LS
266.513 97.8866 LE
264.391 103.008 LS
268.634 98.7653 LE
264.391 98.7653 LS
268.634 103.008 LE
265.256 100.245 LS
271.256 100.245 LE
268.256 103.245 LS
268.256 97.2448 LE
266.135 102.366 LS
270.378 98.1235 LE
266.135 98.1235 LS
270.378 102.366 LE
267 99.603 LS
273 99.603 LE
270 102.603 LS
270 96.603 LE
267.879 101.724 LS
272.121 97.4817 LE
267.879 97.4817 LS
272.121 101.724 LE
268.744 98.9612 LS
274.744 98.9612 LE
271.744 101.961 LS
271.744 95.9612 LE
269.622 101.082 LS
273.865 96.8399 LE
269.622 96.8399 LS
273.865 101.082 LE
270.487 98.3194 LS
276.487 98.3194 LE
273.487 101.319 LS
273.487 95.3194 LE
271.366 100.441 LS
275.609 96.1981 LE
271.366 96.1981 LS
275.609 100.441 LE
272.231 97.6776 LS
278.231 97.6776 LE
275.231 100.678 LS
275.231 94.6776 LE
273.11 99.7989 LS
277.353 95.5562 LE
273.11 95.5562 LS
277.353 99.7989 LE
273.975 97.0357 LS
279.975 97.0357 LE
276.975 100.036 LS
276.975 94.0357 LE
274.854 99.1571 LS
279.096 94.9144 LE
274.854 94.9144 LS
279.096 99.1571 LE
275.719 96.3939 LS
281.719 96.3939 LE
278.719 99.3939 LS
278.719 93.3939 LE
276.597 98.5153 LS
280.84 94.2726 LE
276.597 94.2726 LS
280.84 98.5153 LE
277.462 95.7521 LS
283.462 95.7521 LE
280.462 98.7521 LS
280.462 92.7521 LE
278.341 97.8734 LS
282.584 93.6308 LE
278.341 93.6308 LS
282.584 97.8734 LE
279.206 95.1103 LS
285.206 95.1103 LE
282.206 98.1103 LS
282.206 92.1103 LE
280.085 97.2316 LS
284.328 92.989 LE
280.085 92.989 LS
284.328 97.2316 LE
280.95 94.4685 LS
286.95 94.4685 LE
283.95 97.4685 LS
283.95 91.4685 LE
281.829 96.5898 LS
286.071 92.3472 LE
281.829 92.3472 LS
286.071 96.5898 LE
282.694 93.8267 LS
288.694 93.8267 LE
285.694 96.8267 LS
285.694 90.8267 LE
283.572 95.948 LS
287.815 91.7054 LE
283.572 91.7054 LS
287.815 95.948 LE
284.438 93.1849 LS
290.438 93.1849 LE
287.438 96.1849 LS
287.438 90.1849 LE
285.316 95.3062 LS
289.559 91.0635 LE
285.316 91.0635 LS
289.559 95.3062 LE
286.181 92.5431 LS
292.181 92.5431 LE
289.181 95.5431 LS
289.181 89.5431 LE
287.06 94.6644 LS
291.303 90.4217 LE
287.06 90.4217 LS
291.303 94.6644 LE
287.925 91.9012 LS
293.925 91.9012 LE
290.925 94.9012 LS
290.925 88.9012 LE
288.804 94.0226 LS
293.046 89.7799 LE
288.804 89.7799 LS
293.046 94.0226 LE
289.669 91.2594 LS
295.669 91.2594 LE
292.669 94.2594 LS
292.669 88.2594 LE
290.547 93.3807 LS
294.79 89.1381 LE
290.547 89.1381 LS
294.79 93.3807 LE
291.413 90.6176 LS
297.413 90.6176 LE
294.413 93.6176 LS
294.413 87.6176 LE
292.291 92.7389 LS
296.534 88.4963 LE
292.291 88.4963 LS
296.534 92.7389 LE
293.156 89.9758 LS
299.156 89.9758 LE
296.156 92.9758 LS
296.156 86.9758 LE
294.035 92.0971 LS
298.278 87.8545 LE
294.035 87.8545 LS
298.278 92.0971 LE
294.9 89.334 LS
300.9 89.334 LE
297.9 92.334 LS
297.9 86.334 LE
295.779 91.4553 LS
300.021 87.2127 LE
295.779 87.2127 LS
300.021 91.4553 LE
296.644 88.6922 LS
302.644 88.6922 LE
299.644 91.6922 LS
299.644 85.6922 LE
297.522 90.8135 LS
301.765 86.5709 LE
297.522 86.5709 LS
301.765 90.8135 LE
298.388 88.0504 LS
304.388 88.0504 LE
301.388 91.0504 LS
301.388 85.0504 LE
299.266 90.1717 LS
303.509 85.929 LE
299.266 85.929 LS
303.509 90.1717 LE
300.131 87.4086 LS
306.131 87.4086 LE
303.131 90.4086 LS
303.131 84.4086 LE
301.01 89.5299 LS
305.253 85.2872 LE
301.01 85.2872 LS
305.253 89.5299 LE
301.875 86.7667 LS
307.875 86.7667 LE
304.875 89.7667 LS
304.875 83.7667 LE
302.754 88.8881 LS
306.996 84.6454 LE
302.754 84.6454 LS
306.996 88.8881 LE
303.619 86.1249 LS
309.619 86.1249 LE
306.619 89.1249 LS
306.619 83.1249 LE
304.497 88.2462 LS
308.74 84.0036 LE
304.497 84.0036 LS
308.74 88.2462 LE
305.362 85.4831 LS
311.362 85.4831 LE
308.362 88.4831 LS
308.362 82.4831 LE
306.241 87.6044 LS
310.484 83.3618 LE
306.241 83.3618 LS
310.484 87.6044 LE
307.106 84.8413 LS
313.106 84.8413 LE
310.106 87.8413 LS
310.106 81.8413 LE
307.985 86.9626 LS
312.228 82.72 LE
307.985 82.72 LS
312.228 86.9626 LE
308.85 84.1995 LS
314.85 84.1995 LE
311.85 87.1995 LS
311.85 81.1995 LE
309.729 86.3208 LS
313.971 82.0782 LE
309.729 82.0782 LS
313.971 86.3208 LE
310.594 83.5577 LS
316.594 83.5577 LE
313.594 86.5577 LS
313.594 80.5577 LE
311.472 85.679 LS
315.715 81.4364 LE
311.472 81.4364 LS
315.715 85.679 LE
312.338 82.9159 LS
318.337 82.9159 LE
315.337 85.9159 LS
315.337 79.9159 LE
313.216 85.0372 LS
317.459 80.7945 LE
313.216 80.7945 LS
317.459 85.0372 LE
314.081 82.274 LS
320.081 82.274 LE
317.081 85.274 LS
317.081 79.274 LE
314.96 84.3954 LS
319.203 80.1527 LE
314.96 80.1527 LS
319.203 84.3954 LE
315.825 81.6322 LS
321.825 81.6322 LE
318.825 84.6322 LS
318.825 78.6322 LE
316.704 83.7536 LS
320.946 79.5109 LE
316.704 79.5109 LS
320.946 83.7536 LE
317.569 80.9904 LS
323.569 80.9904 LE
320.569 83.9904 LS
320.569 77.9904 LE
318.447 83.1117 LS
322.69 78.8691 LE
318.447 78.8691 LS
322.69 83.1117 LE
319.313 80.3486 LS
325.312 80.3486 LE
322.313 83.3486 LS
322.313 77.3486 LE
320.191 82.4699 LS
324.434 78.2273 LE
320.191 78.2273 LS
324.434 82.4699 LE
321.056 79.7068 LS
327.056 79.7068 LE
324.056 82.7068 LS
324.056 76.7068 LE
321.935 81.8281 LS
326.178 77.5855 LE
321.935 77.5855 LS
326.178 81.8281 LE
0 1 0 C
45.5438 130.41 LS
51.5438 130.41 LE
48.5438 133.41 LS
48.5438 127.41 LE
47.2875 130.41 LS
53.2875 130.41 LE
50.2875 133.41 LS
50.2875 127.41 LE
49.0313 130.41 LS
55.0312 130.41 LE
52.0312 133.41 LS
52.0312 127.41 LE
50.775 130.41 LS
56.775 130.41 LE
53.775 133.41 LS
53.775 127.41 LE
52.5187 130.41 LS
58.5187 130.41 LE
55.5187 133.41 LS
55.5187 127.41 LE
54.2625 130.41 LS
60.2625 130.41 LE
57.2625 133.41 LS
57.2625 127.41 LE
56.0063 130.41 LS
62.0062 130.41 LE
59.0062 133.41 LS
59.0062 127.41 LE
57.75 130.41 LS
63.75 130.41 LE
60.75 133.41 LS
60.75 127.41 LE
59.4938 130.41 LS
65.4938 130.41 LE
62.4938 133.41 LS
62.4938 127.41 LE
61.2375 130.41 LS
67.2375 130.41 LE
64.2375 133.41 LS
64.2375 127.41 LE
62.9813 130.41 LS
68.9812 130.41 LE
65.9812 133.41 LS
65.9812 127.41 LE
64.725 130.41 LS
70.725 130.41 LE
67.725 133.41 LS
67.725 127.41 LE
66.4688 130.41 LS
72.4688 130.41 LE
69.4688 133.41 LS
69.4688 127.41 LE
68.2125 130.41 LS
74.2125 130.41 LE
71.2125 133.41 LS
71.2125 127.41 LE
69.9563 130.41 LS
75.9563 130.41 LE
72.9563 133.41 LS
72.9563 127.41 LE
71.7 130.41 LS
77.7 130.41 LE
74.7 133.41 LS
74.7 127.41 LE
73.4438 130.41 LS
79.4437 130.41 LE
76.4437 133.41 LS
76.4437 127.41 LE
75.1875 130.41 LS
81.1875 130.41 LE
78.1875 133.41 LS
78.1875 127.41 LE
76.9313 130.41 LS
82.9313 130.41 LE
79.9313 133.41 LS
79.9313 127.41 LE
78.675 130.41 LS
84.675 130.41 LE
81.675 133.41 LS
81.675 127.41 LE
80.4188 130.41 LS
86.4187 130.41 LE
83.4187 133.41 LS
83.4187 127.41 LE
82.1625 130.41 LS
88.1625 130.41 LE
85.1625 133.41 LS
85.1625 127.41 LE
83.9063 130.41 LS
89.9062 130.41 LE
86.9063 133.41 LS
86.9063 127.41 LE
85.65 130.41 LS
91.65 130.41 LE
88.65 133.41 LS
88.65 127.41 LE
87.3938 130.41 LS
93.3938 130.41 LE
90.3938 133.41 LS
90.3938 127.41 LE
89.1375 130.41 LS
95.1375 130.41 LE
92.1375 133.41 LS
92.1375 127.41 LE
90.8812 130.41 LS
96.8813 130.41 LE
93.8813 133.41 LS
93.8813 127.41 LE
92.625 130.41 LS
98.625 130.41 LE
95.625 133.41 LS
95.625 127.41 LE
94.3688 130.41 LS
100.369 130.41 LE
97.3688 133.41 LS
97.3688 127.41 LE
96.1125 130.41 LS
102.113 130.41 LE
99.1125 133.41 LS
99.1125 127.41 LE
97.8562 130.41 LS
103.856 130.41 LE
100.856 133.41 LS
100.856 127.41 LE
99.6 130.41 LS
105.6 130.41 LE
102.6 133.41 LS
102.6 127.41 LE
101.344 130.41 LS
107.344 130.41 LE
104.344 133.41 LS
104.344 127.41 LE
103.088 130.41 LS
109.088 130.41 LE
106.088 133.41 LS
106.088 127.41 LE
104.831 130.41 LS
110.831 130.41 LE
107.831 133.41 LS
107.831 127.41 LE
106.575 130.41 LS
112.575 130.41 LE
109.575 133.41 LS
109.575 127.41 LE
108.319 130.41 LS
114.319 130.41 LE
111.319 133.41 LS
111.319 127.41 LE
110.062 130.41 LS
116.063 130.41 LE
113.062 133.41 LS
113.062 127.41 LE
111.806 130.41 LS
117.806 130.41 LE
114.806 133.41 LS
114.806 127.41 LE
113.55 181.113 LS
119.55 181.113 LE
116.55 184.113 LS
116.55 178.113 LE
115.294 229.249 LS
121.294 229.249 LE
118.294 232.249 LS
118.294 226.249 LE
117.037 225.398 LS
123.038 225.398 LE
120.037 228.398 LS
120.037 222.398 LE
118.781 221.547 LS
124.781 221.547 LE
121.781 224.547 LS
121.781 218.547 LE
120.525 217.696 LS
126.525 217.696 LE
123.525 220.697 LS
123.525 214.696 LE
122.269 213.846 LS
128.269 213.846 LE
125.269 216.846 LS
125.269 210.846 LE
124.012 209.995 LS
130.012 209.995 LE
127.012 212.995 LS
127.012 206.995 LE
125.756 206.144 LS
131.756 206.144 LE
128.756 209.144 LS
128.756 203.144 LE
127.5 202.293 LS
133.5 202.293 LE
130.5 205.293 LS
130.5 199.293 LE
129.244 198.442 LS
135.244 198.442 LE
132.244 201.442 LS
132.244 195.442 LE
130.988 194.591 LS
136.988 194.591 LE
133.988 197.591 LS
133.988 191.591 LE
132.731 190.74 LS
138.731 190.74 LE
135.731 193.74 LS
135.731 187.74 LE
134.475 186.889 LS
140.475 186.889 LE
137.475 189.89 LS
137.475 183.889 LE
136.219 183.039 LS
142.219 183.039 LE
139.219 186.039 LS
139.219 180.039 LE
137.962 179.188 LS
143.962 179.188 LE
140.962 182.188 LS
140.962 176.188 LE
139.706 175.337 LS
145.706 175.337 LE
142.706 178.337 LS
142.706 172.337 LE
141.45 171.486 LS
147.45 171.486 LE
144.45 174.486 LS
144.45 168.486 LE
143.194 167.635 LS
149.194 167.635 LE
146.194 170.635 LS
146.194 164.635 LE
144.938 163.784 LS
150.938 163.784 LE
147.938 166.784 LS
147.938 160.784 LE
146.681 159.933 LS
152.681 159.933 LE
149.681 162.933 LS
149.681 156.933 LE
148.425 156.082 LS
154.425 156.082 LE
151.425 159.082 LS
151.425 153.082 LE
150.169 152.232 LS
156.169 152.232 LE
153.169 155.232 LS
153.169 149.232 LE
151.913 148.381 LS
157.913 148.381 LE
154.913 151.381 LS
154.913 145.381 LE
153.656 144.53 LS
159.656 144.53 LE
156.656 147.53 LS
156.656 141.53 LE
155.4 140.679 LS
161.4 140.679 LE
158.4 143.679 LS
158.4 137.679 LE
157.144 136.828 LS
163.144 136.828 LE
160.144 139.828 LS
160.144 133.828 LE
158.887 132.977 LS
164.887 132.977 LE
161.887 135.977 LS
161.887 129.977 LE
160.631 129.126 LS
166.631 129.126 LE
163.631 132.126 LS
163.631 126.126 LE
162.375 125.275 LS
168.375 125.275 LE
165.375 128.275 LS
165.375 122.275 LE
164.119 121.425 LS
170.119 121.425 LE
167.119 124.425 LS
167.119 118.425 LE
165.863 117.574 LS
171.863 117.574 LE
168.863 120.574 LS
168.863 114.574 LE
167.606 113.723 LS
173.606 113.723 LE
170.606 116.723 LS
170.606 110.723 LE
169.35 109.872 LS
175.35 109.872 LE
172.35 112.872 LS
172.35 106.872 LE
171.094 106.021 LS
177.094 106.021 LE
174.094 109.021 LS
174.094 103.021 LE
172.837 102.17 LS
178.837 102.17 LE
175.837 105.17 LS
175.837 99.1702 LE
174.581 98.3194 LS
180.581 98.3194 LE
177.581 101.319 LS
177.581 95.3194 LE
176.325 94.4685 LS
182.325 94.4685 LE
179.325 97.4685 LS
179.325 91.4685 LE
178.069 90.6176 LS
184.069 90.6176 LE
181.069 93.6176 LS
181.069 87.6176 LE
179.812 86.7667 LS
185.812 86.7667 LE
182.812 89.7667 LS
182.812 83.7667 LE
181.556 82.9159 LS
187.556 82.9159 LE
184.556 85.9159 LS
184.556 79.9159 LE
183.3 130.41 LS
189.3 130.41 LE
186.3 133.41 LS
186.3 127.41 LE
185.044 177.904 LS
191.044 177.904 LE
188.044 180.904 LS
188.044 174.904 LE
186.788 174.053 LS
192.788 174.053 LE
189.788 177.053 LS
189.788 171.053 LE
188.531 170.202 LS
194.531 170.202 LE
191.531 173.202 LS
191.531 167.202 LE
190.275 166.352 LS
196.275 166.352 LE
193.275 169.352 LS
193.275 163.352 LE
192.019 162.501 LS
198.019 162.501 LE
195.019 165.501 LS
195.019 159.501 LE
193.762 158.65 LS
199.762 158.65 LE
196.762 161.65 LS
196.762 155.65 LE
195.506 154.799 LS
201.506 154.799 LE
198.506 157.799 LS
198.506 151.799 LE
197.25 150.948 LS
203.25 150.948 LE
200.25 153.948 LS
200.25 147.948 LE
198.994 147.097 LS
204.994 147.097 LE
201.994 150.097 LS
201.994 144.097 LE
200.738 143.246 LS
206.738 143.246 LE
203.738 146.246 LS
203.738 140.246 LE
202.481 139.395 LS
208.481 139.395 LE
205.481 142.395 LS
205.481 136.395 LE
204.225 135.544 LS
210.225 135.544 LE
207.225 138.544 LS
207.225 132.544 LE
205.969 131.694 LS
211.969 131.694 LE
208.969 134.694 LS
208.969 128.694 LE
207.712 127.843 LS
213.712 127.843 LE
210.712 130.843 LS
210.712 124.843 LE
209.456 123.992 LS
215.456 123.992 LE
212.456 126.992 LS
212.456 120.992 LE
211.2 120.141 LS
217.2 120.141 LE
214.2 123.141 LS
214.2 117.141 LE
212.944 116.29 LS
218.944 116.29 LE
215.944 119.29 LS
215.944 113.29 LE
214.688 112.439 LS
220.688 112.439 LE
217.688 115.439 LS
217.688 109.439 LE
216.431 108.588 LS
222.431 108.588 LE
219.431 111.588 LS
219.431 105.588 LE
218.175 104.737 LS
224.175 104.737 LE
221.175 107.737 LS
221.175 101.737 LE
219.919 100.887 LS
225.919 100.887 LE
222.919 103.887 LS
222.919 97.8866 LE
221.663 97.0357 LS
227.663 97.0357 LE
224.663 100.036 LS
224.663 94.0357 LE
223.406 93.1849 LS
229.406 93.1849 LE
226.406 96.1849 LS
226.406 90.1849 LE
225.15 89.334 LS
231.15 89.334 LE
228.15 92.334 LS
228.15 86.334 LE
226.894 85.4831 LS
232.894 85.4831 LE
229.894 88.4831 LS
229.894 82.4831 LE
228.637 81.6322 LS
234.637 81.6322 LE
231.637 84.6322 LS
231.637 78.6322 LE
230.381 77.7814 LS
236.381 77.7814 LE
233.381 80.7814 LS
233.381 74.7814 LE
232.125 73.9305 LS
238.125 73.9305 LE
235.125 76.9305 LS
235.125 70.9305 LE
233.869 70.0796 LS
239.869 70.0796 LE
236.869 73.0796 LS
236.869 67.0796 LE
235.613 66.2287 LS
241.613 66.2287 LE
238.613 69.2287 LS
238.613 63.2287 LE
237.356 62.3779 LS
243.356 62.3779 LE
240.356 65.3779 LS
240.356 59.3779 LE
239.1 58.527 LS
245.1 58.527 LE
242.1 61.527 LS
242.1 55.527 LE
240.844 54.6761 LS
246.844 54.6761 LE
243.844 57.6761 LS
243.844 51.6761 LE
242.587 50.8252 LS
248.588 50.8252 LE
245.587 53.8252 LS
245.587 47.8252 LE
244.331 46.9744 LS
250.331 46.9744 LE
247.331 49.9744 LS
247.331 43.9744 LE
246.075 43.1235 LS
252.075 43.1235 LE
249.075 46.1235 LS
249.075 40.1235 LE
247.819 39.2726 LS
253.819 39.2726 LE
250.819 42.2726 LS
250.819 36.2726 LE
249.562 35.4217 LS
255.563 35.4217 LE
252.563 38.4217 LS
252.563 32.4217 LE
251.306 31.5709 LS
257.306 31.5709 LE
254.306 34.5709 LS
254.306 28.5709 LE
253.05 79.7068 LS
259.05 79.7068 LE
256.05 82.7068 LS
256.05 76.7068 LE
254.794 130.41 LS
260.794 130.41 LE
257.794 133.41 LS
257.794 127.41 LE
256.538 130.41 LS
262.538 130.41 LE
259.538 133.41 LS
259.538 127.41 LE
258.281 130.41 LS
264.281 130.41 LE
261.281 133.41 LS
261.281 127.41 LE
260.025 130.41 LS
266.025 130.41 LE
263.025 133.41 LS
263.025 127.41 LE
261.769 130.41 LS
267.769 130.41 LE
264.769 133.41 LS
264.769 127.41 LE
263.513 130.41 LS
269.513 130.41 LE
266.513 133.41 LS
266.513 127.41 LE
265.256 130.41 LS
271.256 130.41 LE
268.256 133.41 LS
268.256 127.41 LE
267 130.41 LS
273 130.41 LE
270 133.41 LS
270 127.41 LE
268.744 130.41 LS
274.744 130.41 LE
271.744 133.41 LS
271.744 127.41 LE
270.487 130.41 LS
276.487 130.41 LE
273.487 133.41 LS
273.487 127.41 LE
272.231 130.41 LS
278.231 130.41 LE
275.231 133.41 LS
275.231 127.41 LE
273.975 130.41 LS
279.975 130.41 LE
276.975 133.41 LS
276.975 127.41 LE
275.719 130.41 LS
281.719 130.41 LE
278.719 133.41 LS
278.719 127.41 LE
277.462 130.41 LS
283.462 130.41 LE
280.462 133.41 LS
280.462 127.41 LE
279.206 130.41 LS
285.206 130.41 LE
282.206 133.41 LS
282.206 127.41 LE
280.95 130.41 LS
286.95 130.41 LE
283.95 133.41 LS
283.95 127.41 LE
282.694 130.41 LS
288.694 130.41 LE
285.694 133.41 LS
285.694 127.41 LE
284.438 130.41 LS
290.438 130.41 LE
287.438 133.41 LS
287.438 127.41 LE
286.181 130.41 LS
292.181 130.41 LE
289.181 133.41 LS
289.181 127.41 LE
287.925 130.41 LS
293.925 130.41 LE
290.925 133.41 LS
290.925 127.41 LE
289.669 130.41 LS
295.669 130.41 LE
292.669 133.41 LS
292.669 127.41 LE
291.413 130.41 LS
297.413 130.41 LE
294.413 133.41 LS
294.413 127.41 LE
293.156 130.41 LS
299.156 130.41 LE
296.156 133.41 LS
296.156 127.41 LE
294.9 130.41 LS
300.9 130.41 LE
297.9 133.41 LS
297.9 127.41 LE
296.644 130.41 LS
302.644 130.41 LE
299.644 133.41 LS
299.644 127.41 LE
298.388 130.41 LS
304.388 130.41 LE
301.388 133.41 LS
301.388 127.41 LE
300.131 130.41 LS
306.131 130.41 LE
303.131 133.41 LS
303.131 127.41 LE
301.875 130.41 LS
307.875 130.41 LE
304.875 133.41 LS
304.875 127.41 LE
303.619 130.41 LS
309.619 130.41 LE
306.619 133.41 LS
306.619 127.41 LE
305.362 130.41 LS
311.362 130.41 LE
308.362 133.41 LS
308.362 127.41 LE
307.106 130.41 LS
313.106 130.41 LE
310.106 133.41 LS
310.106 127.41 LE
308.85 130.41 LS
314.85 130.41 LE
311.85 133.41 LS
311.85 127.41 LE
310.594 130.41 LS
316.594 130.41 LE
313.594 133.41 LS
313.594 127.41 LE
312.338 130.41 LS
318.337 130.41 LE
315.337 133.41 LS
315.337 127.41 LE
314.081 130.41 LS
320.081 130.41 LE
317.081 133.41 LS
317.081 127.41 LE
315.825 130.41 LS
321.825 130.41 LE
318.825 133.41 LS
318.825 127.41 LE
317.569 130.41 LS
323.569 130.41 LE
320.569 133.41 LS
320.569 127.41 LE
319.313 130.41 LS
325.312 130.41 LE
322.313 133.41 LS
322.313 127.41 LE
321.056 130.41 LS
327.056 130.41 LE
324.056 133.41 LS
324.056 127.41 LE
grestore
gsave
1.0 1.0 scale
newpath 0 0 moveto 360 0 lineto 360 252 lineto 0 252 lineto
closepath clip
1 1 1 C
262.785 222.429 315.129 191.759 262.785 191.759 T
262.785 222.429 315.129 222.429 315.129 191.759 T
0.5 W
2 LC
[16 0] 0 setdash
0.15 0.15 0.15 C
262.785 191.759 LS
315.129 191.759 LE
262.785 222.429 LS
315.129 222.429 LE
262.785 191.759 LS
262.785 222.429 LE
315.129 191.759 LS
315.129 222.429 LE
gsave
0 0 0 C
(spline) [4 5 2 2 5 10] 0 289.017 211.762 9 /Helvetica SRX
grestore

gsave
0 0 0 C
(pchip) [5 5 5 2 10] 0 289.017 196.426 9 /Helvetica SRX
grestore

[] 0 setdash
1 0 0 C
272.901 214.762 LS
278.901 214.762 LE
275.901 217.762 LS
275.901 211.762 LE
273.78 216.883 LS
278.022 212.64 LE
273.78 212.64 LS
278.022 216.883 LE
0 1 0 C
272.901 199.426 LS
278.901 199.426 LE
275.901 202.426 LS
275.901 196.426 LE
grestore
grestore
showpage
cleartomark
%%PageTrailer
%%Trailer
end
%%EOF
