%!PS-Adobe-3.0 EPSF-3.0
%%Title: gl2ps_renderer figure
%%Creator: GL2PS 1.4.0, (C) 1999-2017 C. Geuzaine
%%For: Octave
%%CreationDate: Mon Feb  3 11:35:17 2020
%%LanguageLevel: 3
%%DocumentData: Clean7Bit
%%Pages: 1
%%BoundingBox: 0 0 360 252
%%EndComments
%%BeginProlog
/gl2psdict 64 dict def gl2psdict begin
/tryPS3shading false def % set to false to force subdivision
/rThreshold 0.064 def % red component subdivision threshold
/gThreshold 0.034 def % green component subdivision threshold
/bThreshold 0.1 def % blue component subdivision threshold
/BD { bind def } bind def
/C  { setrgbcolor } BD
/G  { 0.082 mul exch 0.6094 mul add exch 0.3086 mul add neg 1.0 add setgray } BD
/W  { setlinewidth } BD
/LC  { setlinecap } BD
/LJ  { setlinejoin } BD
/FC { findfont exch /SH exch def SH scalefont setfont } BD
/SW { dup stringwidth pop } BD
/S  { FC moveto show } BD
/SBC{ FC moveto SW -2 div 0 rmoveto show } BD
/SBR{ FC moveto SW neg 0 rmoveto show } BD
/SCL{ FC moveto 0 SH -2 div rmoveto show } BD
/SCC{ FC moveto SW -2 div SH -2 div rmoveto show } BD
/SCR{ FC moveto SW neg SH -2 div rmoveto show } BD
/STL{ FC moveto 0 SH neg rmoveto show } BD
/STC{ FC moveto SW -2 div SH neg rmoveto show } BD
/STR{ FC moveto SW neg SH neg rmoveto show } BD
/FCT { FC translate 0 0 } BD
/SR  { gsave FCT moveto rotate show grestore } BD
/SRX  { gsave FCT moveto rotate xshow grestore } BD
/SBCR{ gsave FCT moveto rotate SW -2 div 0 rmoveto show grestore } BD
/SBRR{ gsave FCT moveto rotate SW neg 0 rmoveto show grestore } BD
/SCLR{ gsave FCT moveto rotate 0 SH -2 div rmoveto show grestore} BD
/SCCR{ gsave FCT moveto rotate SW -2 div SH -2 div rmoveto show grestore} BD
/SCRR{ gsave FCT moveto rotate SW neg SH -2 div rmoveto show grestore} BD
/STLR{ gsave FCT moveto rotate 0 SH neg rmoveto show grestore } BD
/STCR{ gsave FCT moveto rotate SW -2 div SH neg rmoveto show grestore } BD
/STRR{ gsave FCT moveto rotate SW neg SH neg rmoveto show grestore } BD
/P  { newpath 0.0 360.0 arc closepath fill } BD
/LS { newpath moveto } BD
/L  { lineto } BD
/LE { lineto stroke } BD
/T  { newpath moveto lineto lineto closepath fill } BD
/STshfill {
      /b1 exch def /g1 exch def /r1 exch def /y1 exch def /x1 exch def
      /b2 exch def /g2 exch def /r2 exch def /y2 exch def /x2 exch def
      /b3 exch def /g3 exch def /r3 exch def /y3 exch def /x3 exch def
      gsave << /ShadingType 4 /ColorSpace [/DeviceRGB]
      /DataSource [ 0 x1 y1 r1 g1 b1 0 x2 y2 r2 g2 b2 0 x3 y3 r3 g3 b3 ] >>
      shfill grestore } BD
/Tm { 3 -1 roll 8 -1 roll 13 -1 roll add add 3 div
      3 -1 roll 7 -1 roll 11 -1 roll add add 3 div
      3 -1 roll 6 -1 roll 9 -1 roll add add 3 div C T } BD
/STsplit {
      4 index 15 index add 0.5 mul
      4 index 15 index add 0.5 mul
      4 index 15 index add 0.5 mul
      4 index 15 index add 0.5 mul
      4 index 15 index add 0.5 mul
      5 copy 5 copy 25 15 roll
      9 index 30 index add 0.5 mul
      9 index 30 index add 0.5 mul
      9 index 30 index add 0.5 mul
      9 index 30 index add 0.5 mul
      9 index 30 index add 0.5 mul
      5 copy 5 copy 35 5 roll 25 5 roll 15 5 roll
      4 index 10 index add 0.5 mul
      4 index 10 index add 0.5 mul
      4 index 10 index add 0.5 mul
      4 index 10 index add 0.5 mul
      4 index 10 index add 0.5 mul
      5 copy 5 copy 40 5 roll 25 5 roll 15 5 roll 25 5 roll
      STnoshfill STnoshfill STnoshfill STnoshfill } BD
/STnoshfill {
      2 index 8 index sub abs rThreshold gt
      { STsplit }
      { 1 index 7 index sub abs gThreshold gt
        { STsplit }
        { dup 6 index sub abs bThreshold gt
          { STsplit }
          { 2 index 13 index sub abs rThreshold gt
            { STsplit }
            { 1 index 12 index sub abs gThreshold gt
              { STsplit }
              { dup 11 index sub abs bThreshold gt
                { STsplit }
                { 7 index 13 index sub abs rThreshold gt
                  { STsplit }
                  { 6 index 12 index sub abs gThreshold gt
                    { STsplit }
                    { 5 index 11 index sub abs bThreshold gt
                      { STsplit }
                      { Tm }
                      ifelse }
                    ifelse }
                  ifelse }
                ifelse }
              ifelse }
            ifelse }
          ifelse }
        ifelse }
      ifelse } BD
tryPS3shading
{ /shfill where
  { /ST { STshfill } BD }
  { /ST { STnoshfill } BD }
  ifelse }
{ /ST { STnoshfill } BD }
ifelse
end
%%EndProlog
%%BeginSetup
/DeviceRGB setcolorspace
gl2psdict begin
%%EndSetup
%%Page: 1 1
%%BeginPageSetup
%%EndPageSetup
mark
gsave
1.0 1.0 scale
1 1 1 C
newpath 0 0 moveto 360 0 lineto 360 252 lineto 0 252 lineto
closepath fill
gsave
1.0 1.0 scale
1 1 1 C
newpath 0 0 moveto 360 0 lineto 360 252 lineto 0 252 lineto
closepath fill
newpath 0 0 moveto 360 0 lineto 360 252 lineto 0 252 lineto
closepath clip
1 1 1 C
46.8 233.1 325.8 27.72 46.8 27.72 T
46.8 233.1 325.8 233.1 325.8 27.72 T
0.5 W
0.15 0.15 0.15 C
46.8 27.72 LS
46.8 30.5152 LE
46.8 233.1 LS
46.8 230.305 LE
91.2042 27.72 LS
91.2042 30.5152 LE
91.2042 233.1 LS
91.2042 230.305 LE
135.608 27.72 LS
135.608 30.5152 LE
135.608 233.1 LS
135.608 230.305 LE
180.013 27.72 LS
180.013 30.5152 LE
180.013 233.1 LS
180.013 230.305 LE
224.417 27.72 LS
224.417 30.5152 LE
224.417 233.1 LS
224.417 230.305 LE
268.821 27.72 LS
268.821 30.5152 LE
268.821 233.1 LS
268.821 230.305 LE
313.225 27.72 LS
313.225 30.5152 LE
313.225 233.1 LS
313.225 230.305 LE
gsave
0.14902 0.14902 0.14902 C
(0) [10] 0 43.8 12.2061 10 /Helvetica SRX
grestore

gsave
0.14902 0.14902 0.14902 C
(1) [10] 0 88.2042 12.2061 10 /Helvetica SRX
grestore

gsave
0.14902 0.14902 0.14902 C
(2) [10] 0 132.608 12.2061 10 /Helvetica SRX
grestore

gsave
0.14902 0.14902 0.14902 C
(3) [10] 0 177.013 12.2061 10 /Helvetica SRX
grestore

gsave
0.14902 0.14902 0.14902 C
(4) [10] 0 221.417 12.2061 10 /Helvetica SRX
grestore

gsave
0.14902 0.14902 0.14902 C
(5) [10] 0 265.821 12.2061 10 /Helvetica SRX
grestore

gsave
0.14902 0.14902 0.14902 C
(6) [10] 0 310.225 12.2061 10 /Helvetica SRX
grestore

46.8 27.72 LS
49.59 27.72 LE
325.8 27.72 LS
323.01 27.72 LE
46.8 68.796 LS
49.59 68.796 LE
325.8 68.796 LS
323.01 68.796 LE
46.8 109.872 LS
49.59 109.872 LE
325.8 109.872 LS
323.01 109.872 LE
46.8 150.948 LS
49.59 150.948 LE
325.8 150.948 LS
323.01 150.948 LE
46.8 192.024 LS
49.59 192.024 LE
325.8 192.024 LS
323.01 192.024 LE
46.8 233.1 LS
49.59 233.1 LE
325.8 233.1 LS
323.01 233.1 LE
gsave
0.14902 0.14902 0.14902 C
(-2) [3 10] 0 32.8 23.72 10 /Helvetica SRX
grestore

gsave
0.14902 0.14902 0.14902 C
(-1) [3 10] 0 32.8 64.796 10 /Helvetica SRX
grestore

gsave
0.14902 0.14902 0.14902 C
(0) [10] 0 35.8 105.872 10 /Helvetica SRX
grestore

gsave
0.14902 0.14902 0.14902 C
(1) [10] 0 35.8 146.948 10 /Helvetica SRX
grestore

gsave
0.14902 0.14902 0.14902 C
(2) [10] 0 35.8 188.024 10 /Helvetica SRX
grestore

gsave
0.14902 0.14902 0.14902 C
(3) [10] 0 35.8 229.1 10 /Helvetica SRX
grestore

2 LC
[16 0] 0 setdash
46.8 27.72 LS
325.8 27.72 LE
46.8 233.1 LS
325.8 233.1 LE
46.8 27.72 LS
46.8 233.1 LE
325.8 27.72 LS
325.8 233.1 LE
0 0.447 0.741 C
47.8 46.89 46.3 46.024 47.3 46.024 T
47.8 46.89 45.8 46.89 46.3 46.024 T
47.8 46.89 46.3 47.756 45.8 46.89 T
47.8 46.89 47.3 47.756 46.3 47.756 T
47.8 46.89 47.8 46.89 47.3 47.756 T
85.2876 139.333 83.7876 138.467 84.7876 138.467 T
85.2876 139.333 83.2876 139.333 83.7876 138.467 T
85.2876 139.333 83.7876 140.199 83.2876 139.333 T
85.2876 139.333 84.7876 140.199 83.7876 140.199 T
85.2876 139.333 85.2876 139.333 84.7876 140.199 T
284.234 102.59 282.734 101.724 283.734 101.724 T
284.234 102.59 282.234 102.59 282.734 101.724 T
284.234 102.59 282.734 103.456 282.234 102.59 T
284.234 102.59 283.734 103.456 282.734 103.456 T
284.234 102.59 284.234 102.59 283.734 103.456 T
260.893 114.357 259.393 113.491 260.393 113.491 T
260.893 114.357 258.893 114.357 259.393 113.491 T
260.893 114.357 259.393 115.223 258.893 114.357 T
260.893 114.357 260.393 115.223 259.393 115.223 T
260.893 114.357 260.893 114.357 260.393 115.223 T
118.964 188.218 117.464 187.352 118.464 187.352 T
118.964 188.218 116.964 188.218 117.464 187.352 T
118.964 188.218 117.464 189.084 116.964 188.218 T
118.964 188.218 118.464 189.084 117.464 189.084 T
118.964 188.218 118.964 188.218 118.464 189.084 T
186.026 64.2462 184.526 63.3802 185.526 63.3802 T
186.026 64.2462 184.026 64.2462 184.526 63.3802 T
186.026 64.2462 184.526 65.1122 184.026 64.2462 T
186.026 64.2462 185.526 65.1122 184.526 65.1122 T
186.026 64.2462 186.026 64.2462 185.526 65.1122 T
173.208 86.1272 171.708 85.2612 172.708 85.2612 T
173.208 86.1272 171.208 86.1272 171.708 85.2612 T
173.208 86.1272 171.708 86.9932 171.208 86.1272 T
173.208 86.1272 172.708 86.9932 171.708 86.9932 T
173.208 86.1272 173.208 86.1272 172.708 86.9932 T
229.594 94.3565 228.094 93.4905 229.094 93.4905 T
229.594 94.3565 227.594 94.3565 228.094 93.4905 T
229.594 94.3565 228.094 95.2225 227.594 94.3565 T
229.594 94.3565 229.094 95.2225 228.094 95.2225 T
229.594 94.3565 229.594 94.3565 229.094 95.2225 T
267.854 120.209 266.354 119.342 267.354 119.342 T
267.854 120.209 265.854 120.209 266.354 119.342 T
267.854 120.209 266.354 121.075 265.854 120.209 T
267.854 120.209 267.354 121.075 266.354 121.075 T
267.854 120.209 267.854 120.209 267.354 121.075 T
73.9868 120.149 72.4868 119.283 73.4868 119.283 T
73.9868 120.149 71.9868 120.149 72.4868 119.283 T
73.9868 120.149 72.4868 121.015 71.9868 120.149 T
73.9868 120.149 73.4868 121.015 72.4868 121.015 T
73.9868 120.149 73.9868 120.149 73.4868 121.015 T
55.709 78.8039 54.209 77.9379 55.209 77.9379 T
55.709 78.8039 53.709 78.8039 54.209 77.9379 T
55.709 78.8039 54.209 79.67 53.709 78.8039 T
55.709 78.8039 55.209 79.67 54.209 79.67 T
55.709 78.8039 55.709 78.8039 55.209 79.67 T
280.978 84.4944 279.478 83.6284 280.478 83.6284 T
280.978 84.4944 278.978 84.4944 279.478 83.6284 T
280.978 84.4944 279.478 85.3605 278.978 84.4944 T
280.978 84.4944 280.478 85.3605 279.478 85.3605 T
280.978 84.4944 280.978 84.4944 280.478 85.3605 T
168.542 109.178 167.042 108.312 168.042 108.312 T
168.542 109.178 166.542 109.178 167.042 108.312 T
168.542 109.178 167.042 110.044 166.542 109.178 T
168.542 109.178 168.042 110.044 167.042 110.044 T
168.542 109.178 168.542 109.178 168.042 110.044 T
260.476 99.4857 258.976 98.6197 259.976 98.6197 T
260.476 99.4857 258.476 99.4857 258.976 98.6197 T
260.476 99.4857 258.976 100.352 258.476 99.4857 T
260.476 99.4857 259.976 100.352 258.976 100.352 T
260.476 99.4857 260.476 99.4857 259.976 100.352 T
48.3876 70.2355 46.8876 69.3695 47.8876 69.3695 T
48.3876 70.2355 46.3876 70.2355 46.8876 69.3695 T
48.3876 70.2355 46.8876 71.1015 46.3876 70.2355 T
48.3876 70.2355 47.8876 71.1015 46.8876 71.1015 T
48.3876 70.2355 48.3876 70.2355 47.8876 71.1015 T
172.063 87.144 170.563 86.278 171.563 86.278 T
172.063 87.144 170.063 87.144 170.563 86.278 T
172.063 87.144 170.563 88.01 170.063 87.144 T
172.063 87.144 171.563 88.01 170.563 88.01 T
172.063 87.144 172.063 87.144 171.563 88.01 T
249.11 114.739 247.61 113.873 248.61 113.873 T
249.11 114.739 247.11 114.739 247.61 113.873 T
249.11 114.739 247.61 115.605 247.11 114.739 T
249.11 114.739 248.61 115.605 247.61 115.605 T
249.11 114.739 249.11 114.739 248.61 115.605 T
111.625 189.522 110.125 188.656 111.125 188.656 T
111.625 189.522 109.625 189.522 110.125 188.656 T
111.625 189.522 110.125 190.389 109.625 189.522 T
111.625 189.522 111.125 190.389 110.125 190.389 T
111.625 189.522 111.625 189.522 111.125 190.389 T
311.531 74.2535 310.031 73.3874 311.031 73.3874 T
311.531 74.2535 309.531 74.2535 310.031 73.3874 T
311.531 74.2535 310.031 75.1195 309.531 74.2535 T
311.531 74.2535 311.031 75.1195 310.031 75.1195 T
311.531 74.2535 311.531 74.2535 311.031 75.1195 T
299.298 71.198 297.798 70.332 298.798 70.332 T
299.298 71.198 297.298 71.198 297.798 70.332 T
299.298 71.198 297.798 72.064 297.298 71.198 T
299.298 71.198 298.798 72.064 297.798 72.064 T
299.298 71.198 299.298 71.198 298.798 72.064 T
56.3346 81.7982 54.8346 80.9322 55.8346 80.9322 T
56.3346 81.7982 54.3346 81.7982 54.8346 80.9322 T
56.3346 81.7982 54.8346 82.6643 54.3346 81.7982 T
56.3346 81.7982 55.8346 82.6643 54.8346 82.6643 T
56.3346 81.7982 56.3346 81.7982 55.8346 82.6643 T
54.8994 80.1685 53.3994 79.3025 54.3994 79.3025 T
54.8994 80.1685 52.8994 80.1685 53.3994 79.3025 T
54.8994 80.1685 53.3994 81.0346 52.8994 80.1685 T
54.8994 80.1685 54.3994 81.0346 53.3994 81.0346 T
54.8994 80.1685 54.8994 80.1685 54.3994 81.0346 T
198.854 43.8692 197.354 43.0032 198.354 43.0032 T
198.854 43.8692 196.854 43.8692 197.354 43.0032 T
198.854 43.8692 197.354 44.7352 196.854 43.8692 T
198.854 43.8692 198.354 44.7352 197.354 44.7352 T
198.854 43.8692 198.854 43.8692 198.354 44.7352 T
309.823 61.4314 308.323 60.5654 309.323 60.5654 T
309.823 61.4314 307.823 61.4314 308.323 60.5654 T
309.823 61.4314 308.323 62.2975 307.823 61.4314 T
309.823 61.4314 309.323 62.2975 308.323 62.2975 T
309.823 61.4314 309.823 61.4314 309.323 62.2975 T
154.156 131.211 152.656 130.344 153.656 130.344 T
154.156 131.211 152.156 131.211 152.656 130.344 T
154.156 131.211 152.656 132.077 152.156 131.211 T
154.156 131.211 153.656 132.077 152.656 132.077 T
154.156 131.211 154.156 131.211 153.656 132.077 T
108.231 182.621 106.731 181.755 107.731 181.755 T
108.231 182.621 106.231 182.621 106.731 181.755 T
108.231 182.621 106.731 183.487 106.231 182.621 T
108.231 182.621 107.731 183.487 106.731 183.487 T
108.231 182.621 108.231 182.621 107.731 183.487 T
165.571 105.883 164.071 105.017 165.071 105.017 T
165.571 105.883 163.571 105.883 164.071 105.017 T
165.571 105.883 164.071 106.749 163.571 105.883 T
165.571 105.883 165.071 106.749 164.071 106.749 T
165.571 105.883 165.571 105.883 165.071 106.749 T
55.9024 85.9894 54.4024 85.1234 55.4024 85.1234 T
55.9024 85.9894 53.9024 85.9894 54.4024 85.1234 T
55.9024 85.9894 54.4024 86.8554 53.9024 85.9894 T
55.9024 85.9894 55.4024 86.8554 54.4024 86.8554 T
55.9024 85.9894 55.9024 85.9894 55.4024 86.8554 T
109.652 190.493 108.152 189.627 109.152 189.627 T
109.652 190.493 107.652 190.493 108.152 189.627 T
109.652 190.493 108.152 191.359 107.652 190.493 T
109.652 190.493 109.152 191.359 108.152 191.359 T
109.652 190.493 109.652 190.493 109.152 191.359 T
169.971 94.1701 168.471 93.3041 169.471 93.3041 T
169.971 94.1701 167.971 94.1701 168.471 93.3041 T
169.971 94.1701 168.471 95.0361 167.971 94.1701 T
169.971 94.1701 169.471 95.0361 168.471 95.0361 T
169.971 94.1701 169.971 94.1701 169.471 95.0361 T
186.132 70.8777 184.632 70.0117 185.632 70.0117 T
186.132 70.8777 184.132 70.8777 184.632 70.0117 T
186.132 70.8777 184.632 71.7437 184.132 70.8777 T
186.132 70.8777 185.632 71.7437 184.632 71.7437 T
186.132 70.8777 186.132 70.8777 185.632 71.7437 T
112.831 198.47 111.331 197.604 112.331 197.604 T
112.831 198.47 110.831 198.47 111.331 197.604 T
112.831 198.47 111.331 199.336 110.831 198.47 T
112.831 198.47 112.331 199.336 111.331 199.336 T
112.831 198.47 112.831 198.47 112.331 199.336 T
112.212 187.821 110.712 186.955 111.712 186.955 T
112.212 187.821 110.212 187.821 110.712 186.955 T
112.212 187.821 110.712 188.687 110.212 187.821 T
112.212 187.821 111.712 188.687 110.712 188.687 T
112.212 187.821 112.212 187.821 111.712 188.687 T
108.84 190.691 107.34 189.825 108.34 189.825 T
108.84 190.691 106.84 190.691 107.34 189.825 T
108.84 190.691 107.34 191.557 106.84 190.691 T
108.84 190.691 108.34 191.557 107.34 191.557 T
108.84 190.691 108.84 190.691 108.34 191.557 T
176.029 82.037 174.529 81.1709 175.529 81.1709 T
176.029 82.037 174.029 82.037 174.529 81.1709 T
176.029 82.037 174.529 82.903 174.029 82.037 T
176.029 82.037 175.529 82.903 174.529 82.903 T
176.029 82.037 176.029 82.037 175.529 82.903 T
128.649 179.702 127.149 178.836 128.149 178.836 T
128.649 179.702 126.649 179.702 127.149 178.836 T
128.649 179.702 127.149 180.568 126.649 179.702 T
128.649 179.702 128.149 180.568 127.149 180.568 T
128.649 179.702 128.649 179.702 128.149 180.568 T
53.7956 68.0959 52.2956 67.2299 53.2956 67.2299 T
53.7956 68.0959 51.7956 68.0959 52.2956 67.2299 T
53.7956 68.0959 52.2956 68.9619 51.7956 68.0959 T
53.7956 68.0959 53.2956 68.9619 52.2956 68.9619 T
53.7956 68.0959 53.7956 68.0959 53.2956 68.9619 T
281.484 93.5604 279.984 92.6944 280.984 92.6944 T
281.484 93.5604 279.484 93.5604 279.984 92.6944 T
281.484 93.5604 279.984 94.4265 279.484 93.5604 T
281.484 93.5604 280.984 94.4265 279.984 94.4265 T
281.484 93.5604 281.484 93.5604 280.984 94.4265 T
203.051 59.03 201.551 58.164 202.551 58.164 T
203.051 59.03 201.051 59.03 201.551 58.164 T
203.051 59.03 201.551 59.896 201.051 59.03 T
203.051 59.03 202.551 59.896 201.551 59.896 T
203.051 59.03 203.051 59.03 202.551 59.896 T
227 98.6582 225.5 97.7921 226.5 97.7921 T
227 98.6582 225 98.6582 225.5 97.7921 T
227 98.6582 225.5 99.5242 225 98.6582 T
227 98.6582 226.5 99.5242 225.5 99.5242 T
227 98.6582 227 98.6582 226.5 99.5242 T
99.6679 176.973 98.1678 176.107 99.1678 176.107 T
99.6679 176.973 97.6678 176.973 98.1678 176.107 T
99.6679 176.973 98.1678 177.839 97.6678 176.973 T
99.6679 176.973 99.1678 177.839 98.1678 177.839 T
99.6679 176.973 99.6679 176.973 99.1678 177.839 T
324.72 78.2599 323.22 77.3938 324.22 77.3938 T
324.72 78.2599 322.72 78.2599 323.22 77.3938 T
324.72 78.2599 323.22 79.1259 322.72 78.2599 T
324.72 78.2599 324.22 79.1259 323.22 79.1259 T
324.72 78.2599 324.72 78.2599 324.22 79.1259 T
287.725 64.7606 286.225 63.8946 287.225 63.8946 T
287.725 64.7606 285.725 64.7606 286.225 63.8946 T
287.725 64.7606 286.225 65.6266 285.725 64.7606 T
287.725 64.7606 287.225 65.6266 286.225 65.6266 T
287.725 64.7606 287.725 64.7606 287.225 65.6266 T
81.5283 148.032 80.0283 147.166 81.0283 147.166 T
81.5283 148.032 79.5283 148.032 80.0283 147.166 T
81.5283 148.032 80.0283 148.898 79.5283 148.032 T
81.5283 148.032 81.0283 148.898 80.0283 148.898 T
81.5283 148.032 81.5283 148.032 81.0283 148.898 T
140.622 159.407 139.122 158.541 140.122 158.541 T
140.622 159.407 138.622 159.407 139.122 158.541 T
140.622 159.407 139.122 160.273 138.622 159.407 T
140.622 159.407 140.122 160.273 139.122 160.273 T
140.622 159.407 140.622 159.407 140.122 160.273 T
249.094 107.814 247.594 106.948 248.594 106.948 T
249.094 107.814 247.094 107.814 247.594 106.948 T
249.094 107.814 247.594 108.68 247.094 107.814 T
249.094 107.814 248.594 108.68 247.594 108.68 T
249.094 107.814 249.094 107.814 248.594 108.68 T
246.223 112.302 244.723 111.436 245.723 111.436 T
246.223 112.302 244.223 112.302 244.723 111.436 T
246.223 112.302 244.723 113.168 244.223 112.302 T
246.223 112.302 245.723 113.168 244.723 113.168 T
246.223 112.302 246.223 112.302 245.723 113.168 T
309.067 52.1197 307.567 51.2537 308.567 51.2537 T
309.067 52.1197 307.067 52.1197 307.567 51.2537 T
309.067 52.1197 307.567 52.9857 307.067 52.1197 T
309.067 52.1197 308.567 52.9857 307.567 52.9857 T
309.067 52.1197 309.067 52.1197 308.567 52.9857 T
165.568 98.1606 164.068 97.2946 165.068 97.2946 T
165.568 98.1606 163.568 98.1606 164.068 97.2946 T
165.568 98.1606 164.068 99.0267 163.568 98.1606 T
165.568 98.1606 165.068 99.0267 164.068 99.0267 T
165.568 98.1606 165.568 98.1606 165.068 99.0267 T
279.38 99.6756 277.88 98.8096 278.88 98.8096 T
279.38 99.6756 277.38 99.6756 277.88 98.8096 T
279.38 99.6756 277.88 100.542 277.38 99.6756 T
279.38 99.6756 278.88 100.542 277.88 100.542 T
279.38 99.6756 279.38 99.6756 278.88 100.542 T
234.815 90.1977 233.315 89.3317 234.315 89.3317 T
234.815 90.1977 232.815 90.1977 233.315 89.3317 T
234.815 90.1977 233.315 91.0638 232.815 90.1977 T
234.815 90.1977 234.315 91.0638 233.315 91.0638 T
234.815 90.1977 234.815 90.1977 234.315 91.0638 T
132.44 165.009 130.94 164.143 131.94 164.143 T
132.44 165.009 130.44 165.009 130.94 164.143 T
132.44 165.009 130.94 165.875 130.44 165.009 T
132.44 165.009 131.94 165.875 130.94 165.875 T
132.44 165.009 132.44 165.009 131.94 165.875 T
211.735 66.2069 210.235 65.3409 211.235 65.3409 T
211.735 66.2069 209.735 66.2069 210.235 65.3409 T
211.735 66.2069 210.235 67.0729 209.735 66.2069 T
211.735 66.2069 211.235 67.0729 210.235 67.0729 T
211.735 66.2069 211.735 66.2069 211.235 67.0729 T
294.012 66.9574 292.512 66.0914 293.512 66.0914 T
294.012 66.9574 292.012 66.9574 292.512 66.0914 T
294.012 66.9574 292.512 67.8235 292.012 66.9574 T
294.012 66.9574 293.512 67.8235 292.512 67.8235 T
294.012 66.9574 294.012 66.9574 293.512 67.8235 T
283.889 83.7808 282.389 82.9148 283.389 82.9148 T
283.889 83.7808 281.889 83.7808 282.389 82.9148 T
283.889 83.7808 282.389 84.6468 281.889 83.7808 T
283.889 83.7808 283.389 84.6468 282.389 84.6468 T
283.889 83.7808 283.889 83.7808 283.389 84.6468 T
188.774 82.6172 187.274 81.7512 188.274 81.7512 T
188.774 82.6172 186.774 82.6172 187.274 81.7512 T
188.774 82.6172 187.274 83.4833 186.774 82.6172 T
188.774 82.6172 188.274 83.4833 187.274 83.4833 T
188.774 82.6172 188.774 82.6172 188.274 83.4833 T
212.132 58.8327 210.632 57.9667 211.632 57.9667 T
212.132 58.8327 210.132 58.8327 210.632 57.9667 T
212.132 58.8327 210.632 59.6988 210.132 58.8327 T
212.132 58.8327 211.632 59.6988 210.632 59.6988 T
212.132 58.8327 212.132 58.8327 211.632 59.6988 T
57.4327 90.5282 55.9327 89.6622 56.9327 89.6622 T
57.4327 90.5282 55.4327 90.5282 55.9327 89.6622 T
57.4327 90.5282 55.9327 91.3943 55.4327 90.5282 T
57.4327 90.5282 56.9327 91.3943 55.9327 91.3943 T
57.4327 90.5282 57.4327 90.5282 56.9327 91.3943 T
115.524 178.131 114.024 177.265 115.024 177.265 T
115.524 178.131 113.524 178.131 114.024 177.265 T
115.524 178.131 114.024 178.997 113.524 178.131 T
115.524 178.131 115.024 178.997 114.024 178.997 T
115.524 178.131 115.524 178.131 115.024 178.997 T
270.276 99.9725 268.776 99.1065 269.776 99.1065 T
270.276 99.9725 268.276 99.9725 268.776 99.1065 T
270.276 99.9725 268.776 100.839 268.276 99.9725 T
270.276 99.9725 269.776 100.839 268.776 100.839 T
270.276 99.9725 270.276 99.9725 269.776 100.839 T
163.394 103.708 161.894 102.842 162.894 102.842 T
163.394 103.708 161.394 103.708 161.894 102.842 T
163.394 103.708 161.894 104.574 161.394 103.708 T
163.394 103.708 162.894 104.574 161.894 104.574 T
163.394 103.708 163.394 103.708 162.894 104.574 T
96.0691 160.204 94.5691 159.338 95.5691 159.338 T
96.0691 160.204 94.0691 160.204 94.5691 159.338 T
96.0691 160.204 94.5691 161.07 94.0691 160.204 T
96.0691 160.204 95.5691 161.07 94.5691 161.07 T
96.0691 160.204 96.0691 160.204 95.5691 161.07 T
200.915 66.986 199.415 66.1199 200.415 66.1199 T
200.915 66.986 198.915 66.986 199.415 66.1199 T
200.915 66.986 199.415 67.852 198.915 66.986 T
200.915 66.986 200.415 67.852 199.415 67.852 T
200.915 66.986 200.915 66.986 200.415 67.852 T
243.948 97.8279 242.448 96.9618 243.448 96.9618 T
243.948 97.8279 241.948 97.8279 242.448 96.9618 T
243.948 97.8279 242.448 98.6939 241.948 97.8279 T
243.948 97.8279 243.448 98.6939 242.448 98.6939 T
243.948 97.8279 243.948 97.8279 243.448 98.6939 T
235.982 83.185 234.482 82.319 235.482 82.319 T
235.982 83.185 233.982 83.185 234.482 82.319 T
235.982 83.185 234.482 84.051 233.982 83.185 T
235.982 83.185 235.482 84.051 234.482 84.051 T
235.982 83.185 235.982 83.185 235.482 84.051 T
152.342 139.89 150.842 139.024 151.842 139.024 T
152.342 139.89 150.342 139.89 150.842 139.024 T
152.342 139.89 150.842 140.756 150.342 139.89 T
152.342 139.89 151.842 140.756 150.842 140.756 T
152.342 139.89 152.342 139.89 151.842 140.756 T
170.27 87.6932 168.77 86.8272 169.77 86.8272 T
170.27 87.6932 168.27 87.6932 168.77 86.8272 T
170.27 87.6932 168.77 88.5592 168.27 87.6932 T
170.27 87.6932 169.77 88.5592 168.77 88.5592 T
170.27 87.6932 170.27 87.6932 169.77 88.5592 T
189.651 76.8321 188.151 75.9661 189.151 75.9661 T
189.651 76.8321 187.651 76.8321 188.151 75.9661 T
189.651 76.8321 188.151 77.6981 187.651 76.8321 T
189.651 76.8321 189.151 77.6981 188.151 77.6981 T
189.651 76.8321 189.651 76.8321 189.151 77.6981 T
264.986 117.782 263.486 116.916 264.486 116.916 T
264.986 117.782 262.986 117.782 263.486 116.916 T
264.986 117.782 263.486 118.648 262.986 117.782 T
264.986 117.782 264.486 118.648 263.486 118.648 T
264.986 117.782 264.986 117.782 264.486 118.648 T
193.142 82.162 191.642 81.296 192.642 81.296 T
193.142 82.162 191.142 82.162 191.642 81.296 T
193.142 82.162 191.642 83.028 191.142 82.162 T
193.142 82.162 192.642 83.028 191.642 83.028 T
193.142 82.162 193.142 82.162 192.642 83.028 T
157.518 135.543 156.018 134.677 157.018 134.677 T
157.518 135.543 155.518 135.543 156.018 134.677 T
157.518 135.543 156.018 136.409 155.518 135.543 T
157.518 135.543 157.018 136.409 156.018 136.409 T
157.518 135.543 157.518 135.543 157.018 136.409 T
184.424 65.7499 182.924 64.8839 183.924 64.8839 T
184.424 65.7499 182.424 65.7499 182.924 64.8839 T
184.424 65.7499 182.924 66.6159 182.424 65.7499 T
184.424 65.7499 183.924 66.6159 182.924 66.6159 T
184.424 65.7499 184.424 65.7499 183.924 66.6159 T
56.0514 78.2972 54.5514 77.4312 55.5514 77.4312 T
56.0514 78.2972 54.0514 78.2972 54.5514 77.4312 T
56.0514 78.2972 54.5514 79.1632 54.0514 78.2972 T
56.0514 78.2972 55.5514 79.1632 54.5514 79.1632 T
56.0514 78.2972 56.0514 78.2972 55.5514 79.1632 T
59.933 77.7557 58.433 76.8897 59.433 76.8897 T
59.933 77.7557 57.933 77.7557 58.433 76.8897 T
59.933 77.7557 58.433 78.6217 57.933 77.7557 T
59.933 77.7557 59.433 78.6217 58.433 78.6217 T
59.933 77.7557 59.933 77.7557 59.433 78.6217 T
244.044 114.322 242.544 113.456 243.544 113.456 T
244.044 114.322 242.044 114.322 242.544 113.456 T
244.044 114.322 242.544 115.188 242.044 114.322 T
244.044 114.322 243.544 115.188 242.544 115.188 T
244.044 114.322 244.044 114.322 243.544 115.188 T
322.109 69.7542 320.609 68.8882 321.609 68.8882 T
322.109 69.7542 320.109 69.7542 320.609 68.8882 T
322.109 69.7542 320.609 70.6202 320.109 69.7542 T
322.109 69.7542 321.609 70.6202 320.609 70.6202 T
322.109 69.7542 322.109 69.7542 321.609 70.6202 T
213.298 54.9051 211.798 54.0391 212.798 54.0391 T
213.298 54.9051 211.298 54.9051 211.798 54.0391 T
213.298 54.9051 211.798 55.7712 211.298 54.9051 T
213.298 54.9051 212.798 55.7712 211.798 55.7712 T
213.298 54.9051 213.298 54.9051 212.798 55.7712 T
157.614 121.446 156.114 120.58 157.114 120.58 T
157.614 121.446 155.614 121.446 156.114 120.58 T
157.614 121.446 156.114 122.312 155.614 121.446 T
157.614 121.446 157.114 122.312 156.114 122.312 T
157.614 121.446 157.614 121.446 157.114 122.312 T
95.3274 166.672 93.8274 165.806 94.8274 165.806 T
95.3274 166.672 93.3274 166.672 93.8274 165.806 T
95.3274 166.672 93.8274 167.538 93.3274 166.672 T
95.3274 166.672 94.8274 167.538 93.8274 167.538 T
95.3274 166.672 95.3274 166.672 94.8274 167.538 T
187.925 76.0286 186.425 75.1626 187.425 75.1626 T
187.925 76.0286 185.925 76.0286 186.425 75.1626 T
187.925 76.0286 186.425 76.8946 185.925 76.0286 T
187.925 76.0286 187.425 76.8946 186.425 76.8946 T
187.925 76.0286 187.925 76.0286 187.425 76.8946 T
321.799 63.1498 320.299 62.2837 321.299 62.2837 T
321.799 63.1498 319.799 63.1498 320.299 62.2837 T
321.799 63.1498 320.299 64.0158 319.799 63.1498 T
321.799 63.1498 321.299 64.0158 320.299 64.0158 T
321.799 63.1498 321.799 63.1498 321.299 64.0158 T
262.776 108.415 261.276 107.549 262.276 107.549 T
262.776 108.415 260.776 108.415 261.276 107.549 T
262.776 108.415 261.276 109.282 260.776 108.415 T
262.776 108.415 262.276 109.282 261.276 109.282 T
262.776 108.415 262.776 108.415 262.276 109.282 T
198.353 53.2123 196.853 52.3462 197.853 52.3462 T
198.353 53.2123 196.353 53.2123 196.853 52.3462 T
198.353 53.2123 196.853 54.0783 196.353 53.2123 T
198.353 53.2123 197.853 54.0783 196.853 54.0783 T
198.353 53.2123 198.353 53.2123 197.853 54.0783 T
287.821 91.3352 286.321 90.4692 287.321 90.4692 T
287.821 91.3352 285.821 91.3352 286.321 90.4692 T
287.821 91.3352 286.321 92.2012 285.821 91.3352 T
287.821 91.3352 287.321 92.2012 286.321 92.2012 T
287.821 91.3352 287.821 91.3352 287.321 92.2012 T
112.577 187.35 111.077 186.484 112.077 186.484 T
112.577 187.35 110.577 187.35 111.077 186.484 T
112.577 187.35 111.077 188.216 110.577 187.35 T
112.577 187.35 112.077 188.216 111.077 188.216 T
112.577 187.35 112.577 187.35 112.077 188.216 T
191.142 65.0155 189.642 64.1495 190.642 64.1495 T
191.142 65.0155 189.142 65.0155 189.642 64.1495 T
191.142 65.0155 189.642 65.8815 189.142 65.0155 T
191.142 65.0155 190.642 65.8815 189.642 65.8815 T
191.142 65.0155 191.142 65.0155 190.642 65.8815 T
313.538 68.4336 312.038 67.5676 313.038 67.5676 T
313.538 68.4336 311.538 68.4336 312.038 67.5676 T
313.538 68.4336 312.038 69.2996 311.538 68.4336 T
313.538 68.4336 313.038 69.2996 312.038 69.2996 T
313.538 68.4336 313.538 68.4336 313.038 69.2996 T
209.005 59.3552 207.505 58.4892 208.505 58.4892 T
209.005 59.3552 207.005 59.3552 207.505 58.4892 T
209.005 59.3552 207.505 60.2212 207.005 59.3552 T
209.005 59.3552 208.505 60.2212 207.505 60.2212 T
209.005 59.3552 209.005 59.3552 208.505 60.2212 T
175.898 71.5298 174.398 70.6638 175.398 70.6638 T
175.898 71.5298 173.898 71.5298 174.398 70.6638 T
175.898 71.5298 174.398 72.3958 173.898 71.5298 T
175.898 71.5298 175.398 72.3958 174.398 72.3958 T
175.898 71.5298 175.898 71.5298 175.398 72.3958 T
122.929 183.638 121.429 182.772 122.429 182.772 T
122.929 183.638 120.929 183.638 121.429 182.772 T
122.929 183.638 121.429 184.504 120.929 183.638 T
122.929 183.638 122.429 184.504 121.429 184.504 T
122.929 183.638 122.929 183.638 122.429 184.504 T
200.691 55.347 199.191 54.481 200.191 54.481 T
200.691 55.347 198.691 55.347 199.191 54.481 T
200.691 55.347 199.191 56.213 198.691 55.347 T
200.691 55.347 200.191 56.213 199.191 56.213 T
200.691 55.347 200.691 55.347 200.191 56.213 T
314.835 57.4565 313.335 56.5905 314.335 56.5905 T
314.835 57.4565 312.835 57.4565 313.335 56.5905 T
314.835 57.4565 313.335 58.3225 312.835 57.4565 T
314.835 57.4565 314.335 58.3225 313.335 58.3225 T
314.835 57.4565 314.835 57.4565 314.335 58.3225 T
49.3928 55.1004 47.8928 54.2343 48.8928 54.2343 T
49.3928 55.1004 47.3928 55.1004 47.8928 54.2343 T
49.3928 55.1004 47.8928 55.9664 47.3928 55.1004 T
49.3928 55.1004 48.8928 55.9664 47.8928 55.9664 T
49.3928 55.1004 49.3928 55.1004 48.8928 55.9664 T
266.44 111.367 264.94 110.501 265.94 110.501 T
266.44 111.367 264.44 111.367 264.94 110.501 T
266.44 111.367 264.94 112.233 264.44 111.367 T
266.44 111.367 265.94 112.233 264.94 112.233 T
266.44 111.367 266.44 111.367 265.94 112.233 T
276.716 97.7838 275.216 96.9178 276.216 96.9178 T
276.716 97.7838 274.716 97.7838 275.216 96.9178 T
276.716 97.7838 275.216 98.6498 274.716 97.7838 T
276.716 97.7838 276.216 98.6498 275.216 98.6498 T
276.716 97.7838 276.716 97.7838 276.216 98.6498 T
295.044 79.6281 293.544 78.7621 294.544 78.7621 T
295.044 79.6281 293.044 79.6281 293.544 78.7621 T
295.044 79.6281 293.544 80.4941 293.044 79.6281 T
295.044 79.6281 294.544 80.4941 293.544 80.4941 T
295.044 79.6281 295.044 79.6281 294.544 80.4941 T
254.4 101.813 252.9 100.947 253.9 100.947 T
254.4 101.813 252.4 101.813 252.9 100.947 T
254.4 101.813 252.9 102.679 252.4 101.813 T
254.4 101.813 253.9 102.679 252.9 102.679 T
254.4 101.813 254.4 101.813 253.9 102.679 T
273.55 108.77 272.05 107.904 273.05 107.904 T
273.55 108.77 271.55 108.77 272.05 107.904 T
273.55 108.77 272.05 109.636 271.55 108.77 T
273.55 108.77 273.05 109.636 272.05 109.636 T
273.55 108.77 273.55 108.77 273.05 109.636 T
192.511 68.6636 191.011 67.7975 192.011 67.7975 T
192.511 68.6636 190.511 68.6636 191.011 67.7975 T
192.511 68.6636 191.011 69.5296 190.511 68.6636 T
192.511 68.6636 192.011 69.5296 191.011 69.5296 T
192.511 68.6636 192.511 68.6636 192.011 69.5296 T
326.8 88.0756 325.3 87.2096 326.3 87.2096 T
326.8 88.0756 324.8 88.0756 325.3 87.2096 T
326.8 88.0756 325.3 88.9417 324.8 88.0756 T
326.8 88.0756 326.3 88.9417 325.3 88.9417 T
326.8 88.0756 326.8 88.0756 326.3 88.9417 T
0 LC
1 LJ
[] 0 setdash
0.85 0.325 0.098 C
46.8 53.5774 LS
47.4993 57.675 L
48.1985 61.1495 L
48.8978 64.1132 L
49.597 66.6645 L
50.2962 68.8886 L
50.9955 70.8586 L
51.6948 72.6364 L
52.394 74.2737 L
53.0932 75.8127 L
53.7925 77.2874 L
54.4917 78.7243 L
55.191 80.143 L
55.8902 81.558 L
56.5895 82.9787 L
57.2887 84.411 L
57.988 85.8577 L
58.6872 87.32 L
59.3865 88.7978 L
60.0857 90.2911 L
60.785 91.7994 L
61.4842 93.3226 L
62.1835 94.8602 L
62.8827 96.4118 L
63.582 97.9771 L
64.2812 99.5554 L
64.9805 101.146 L
65.6797 102.749 L
66.379 104.364 L
67.0782 105.989 L
67.7775 107.624 L
68.4767 109.268 L
69.1759 110.921 L
69.8752 112.581 L
70.5744 114.249 L
71.2737 115.923 L
71.9729 117.601 L
72.6722 119.284 L
73.3714 120.971 L
74.0707 122.66 L
74.7699 124.35 L
75.4692 126.04 L
76.1684 127.73 L
76.8677 129.419 L
77.5669 131.104 L
78.2662 132.786 L
78.9654 134.463 L
79.6647 136.134 L
80.3639 137.797 L
81.0632 139.453 L
81.7624 141.099 L
82.4617 142.734 L
83.1609 144.358 L
83.8602 145.969 L
84.5594 147.565 L
85.2587 149.147 L
85.9579 150.712 L
86.6572 152.26 L
87.3564 153.789 L
88.0557 155.298 L
88.7549 156.786 L
89.4541 158.252 L
90.1534 159.695 L
90.8526 161.113 L
91.5519 162.505 L
92.2511 163.871 L
92.9504 165.209 L
93.6496 166.518 L
94.3489 167.798 L
95.0481 169.046 L
95.7474 170.262 L
96.4466 171.444 L
97.1459 172.593 L
97.8451 173.707 L
98.5444 174.785 L
99.2436 175.825 L
99.9429 176.828 L
100.642 177.792 L
101.341 178.716 L
102.041 179.6 L
102.74 180.443 L
103.439 181.243 L
104.138 182.001 L
104.838 182.716 L
105.537 183.386 L
106.236 184.012 L
106.935 184.592 L
107.635 185.127 L
108.334 185.615 L
109.033 186.057 L
109.732 186.452 L
110.432 186.799 L
111.131 187.098 L
111.83 187.35 L
112.529 187.553 L
113.229 187.708 L
113.928 187.814 L
114.627 187.872 L
115.326 187.881 L
116.026 187.841 L
116.725 187.753 L
117.424 187.616 L
118.123 187.431 L
118.823 187.198 L
119.522 186.918 L
120.221 186.589 L
120.92 186.214 L
121.62 185.791 L
122.319 185.322 L
123.018 184.807 L
123.717 184.246 L
124.417 183.64 L
125.116 182.989 L
125.815 182.295 L
126.514 181.557 L
127.214 180.776 L
127.913 179.953 L
128.612 179.088 L
129.311 178.183 L
130.011 177.238 L
130.71 176.254 L
131.409 175.232 L
132.108 174.172 L
132.808 173.076 L
133.507 171.944 L
134.206 170.777 L
134.905 169.577 L
135.605 168.344 L
136.304 167.08 L
137.003 165.784 L
137.702 164.459 L
138.402 163.106 L
139.101 161.725 L
139.8 160.318 L
140.499 158.886 L
141.199 157.43 L
141.898 155.951 L
142.597 154.45 L
143.296 152.93 L
143.995 151.39 L
144.695 149.833 L
145.394 148.259 L
146.093 146.67 L
146.792 145.066 L
147.492 143.451 L
148.191 141.824 L
148.89 140.187 L
149.589 138.542 L
150.289 136.89 L
150.988 135.232 L
151.687 133.57 L
152.386 131.904 L
153.086 130.237 L
153.785 128.57 L
154.484 126.904 L
155.183 125.241 L
155.883 123.581 L
156.582 121.927 L
157.281 120.279 L
157.98 118.639 L
158.68 117.008 L
159.379 115.388 L
160.078 113.779 L
160.777 112.183 L
161.477 110.601 L
162.176 109.033 L
162.875 107.483 L
163.574 105.949 L
164.274 104.434 L
164.973 102.937 L
165.672 101.461 L
166.371 100.006 L
167.071 98.5731 L
167.77 97.1624 L
168.469 95.7751 L
169.168 94.4117 L
169.868 93.0728 L
170.567 91.759 L
171.266 90.4706 L
171.965 89.2081 L
172.665 87.9718 L
173.364 86.7619 L
174.063 85.5787 L
174.762 84.4222 L
175.462 83.2927 L
176.161 82.1901 L
176.86 81.1146 L
177.559 80.066 L
178.259 79.0445 L
178.958 78.0499 L
179.657 77.0822 L
180.356 76.1413 L
181.056 75.2272 L
181.755 74.3397 L
182.454 73.4788 L
183.153 72.6444 L
183.853 71.8364 L
184.552 71.0547 L
185.251 70.2995 L
185.95 69.5706 L
186.65 68.8681 L
187.349 68.192 L
188.048 67.5424 L
188.747 66.9195 L
189.447 66.3236 L
190.146 65.7547 L
190.845 65.2133 L
191.544 64.6996 L
192.244 64.2141 L
192.943 63.7572 L
193.642 63.3294 L
194.341 62.9312 L
195.041 62.5632 L
195.74 62.2258 L
196.439 61.9197 L
197.138 61.6454 L
197.838 61.4036 L
198.537 61.1948 L
199.236 61.0196 L
199.935 60.8786 L
200.635 60.7723 L
201.334 60.7013 L
202.033 60.6661 L
202.732 60.6671 L
203.432 60.7049 L
204.131 60.7798 L
204.83 60.8923 L
205.529 61.0425 L
206.229 61.2308 L
206.928 61.4573 L
207.627 61.7223 L
208.326 62.0257 L
209.026 62.3675 L
209.725 62.7476 L
210.424 63.1659 L
211.123 63.6221 L
211.823 64.1157 L
212.522 64.6463 L
213.221 65.2134 L
213.92 65.8162 L
214.62 66.4541 L
215.319 67.1262 L
216.018 67.8315 L
216.717 68.5691 L
217.417 69.3379 L
218.116 70.1368 L
218.815 70.9645 L
219.514 71.8197 L
220.214 72.7012 L
220.913 73.6075 L
221.612 74.5371 L
222.311 75.4886 L
223.011 76.4604 L
223.71 77.4509 L
224.409 78.4584 L
225.108 79.4814 L
225.808 80.518 L
226.507 81.5665 L
227.206 82.6252 L
227.905 83.6922 L
228.605 84.7658 L
229.304 85.8441 L
230.003 86.9253 L
230.702 88.0074 L
231.402 89.0887 L
232.101 90.1672 L
232.8 91.2412 L
233.499 92.3087 L
234.199 93.3678 L
234.898 94.4168 L
235.597 95.4537 L
236.296 96.4768 L
236.995 97.4842 L
237.695 98.4743 L
238.394 99.4451 L
239.093 100.395 L
239.792 101.322 L
240.492 102.226 L
241.191 103.103 L
241.89 103.953 L
242.589 104.774 L
243.289 105.565 L
243.988 106.323 L
244.687 107.049 L
245.386 107.74 L
246.086 108.396 L
246.785 109.015 L
247.484 109.596 L
248.183 110.137 L
248.883 110.639 L
249.582 111.101 L
250.281 111.521 L
250.98 111.898 L
251.68 112.233 L
252.379 112.524 L
253.078 112.772 L
253.777 112.975 L
254.477 113.134 L
255.176 113.248 L
255.875 113.318 L
256.574 113.342 L
257.274 113.322 L
257.973 113.256 L
258.672 113.147 L
259.371 112.992 L
260.071 112.794 L
260.77 112.552 L
261.469 112.266 L
262.168 111.938 L
262.868 111.568 L
263.567 111.157 L
264.266 110.705 L
264.965 110.214 L
265.665 109.683 L
266.364 109.115 L
267.063 108.51 L
267.762 107.869 L
268.462 107.194 L
269.161 106.486 L
269.86 105.746 L
270.559 104.975 L
271.259 104.176 L
271.958 103.349 L
272.657 102.497 L
273.356 101.621 L
274.056 100.723 L
274.755 99.8041 L
275.454 98.867 L
276.153 97.9134 L
276.853 96.9453 L
277.552 95.9647 L
278.251 94.9737 L
278.95 93.9743 L
279.65 92.9687 L
280.349 91.9587 L
281.048 90.9466 L
281.747 89.9343 L
282.447 88.9238 L
283.146 87.9171 L
283.845 86.916 L
284.544 85.9225 L
285.244 84.9383 L
285.943 83.9652 L
286.642 83.0047 L
287.341 82.0583 L
288.041 81.1276 L
288.74 80.2139 L
289.439 79.3182 L
290.138 78.4418 L
290.838 77.5855 L
291.537 76.7502 L
292.236 75.9364 L
292.935 75.1447 L
293.635 74.3753 L
294.334 73.6284 L
295.033 72.9038 L
295.732 72.2014 L
296.432 71.5207 L
297.131 70.861 L
297.83 70.2219 L
298.529 69.6025 L
299.229 69.0023 L
299.928 68.4204 L
300.627 67.8563 L
301.326 67.3096 L
302.026 66.7798 L
302.725 66.267 L
303.424 65.771 L
304.123 65.2925 L
304.823 64.8319 L
305.522 64.3905 L
306.221 63.9696 L
306.92 63.5711 L
307.62 63.1973 L
308.319 62.8513 L
309.018 62.5363 L
309.717 62.2564 L
310.417 62.0163 L
311.116 61.8213 L
311.815 61.6776 L
312.514 61.5919 L
313.214 61.5719 L
313.913 61.6261 L
314.612 61.7637 L
315.311 61.9951 L
316.011 62.3315 L
316.71 62.7852 L
317.409 63.3694 L
318.108 64.0985 L
318.808 64.988 L
319.507 66.0545 L
320.206 67.3158 L
320.905 68.7912 L
321.605 70.5009 L
322.304 72.4666 L
323.003 74.7115 L
323.702 77.2601 L
324.402 80.1381 L
325.101 83.3731 L
325.8 86.994 LE
0.929 0.694 0.125 C
46.8 68.7646 LS
47.4993 69.5217 L
48.1985 70.3174 L
48.8978 71.1513 L
49.597 72.0231 L
50.2962 72.9323 L
50.9955 73.8786 L
51.6948 74.8614 L
52.394 75.8804 L
53.0932 76.9349 L
53.7925 78.0244 L
54.4917 79.1483 L
55.191 80.3059 L
55.8902 81.4968 L
56.5895 82.72 L
57.2887 83.9749 L
57.988 85.2608 L
58.6872 86.5769 L
59.3865 87.9223 L
60.0857 89.2961 L
60.785 90.6975 L
61.4842 92.1255 L
62.1835 93.5793 L
62.8827 95.0577 L
63.582 96.5598 L
64.2812 98.0846 L
64.9805 99.6309 L
65.6797 101.198 L
66.379 102.784 L
67.0782 104.388 L
67.7775 106.01 L
68.4767 107.647 L
69.1759 109.299 L
69.8752 110.965 L
70.5744 112.643 L
71.2737 114.332 L
71.9729 116.03 L
72.6722 117.738 L
73.3714 119.452 L
74.0707 121.172 L
74.7699 122.897 L
75.4692 124.624 L
76.1684 126.354 L
76.8677 128.085 L
77.5669 129.814 L
78.2662 131.542 L
78.9654 133.266 L
79.6647 134.985 L
80.3639 136.699 L
81.0632 138.404 L
81.7624 140.101 L
82.4617 141.788 L
83.1609 143.463 L
83.8602 145.126 L
84.5594 146.774 L
85.2587 148.406 L
85.9579 150.022 L
86.6572 151.62 L
87.3564 153.198 L
88.0557 154.756 L
88.7549 156.291 L
89.4541 157.804 L
90.1534 159.292 L
90.8526 160.754 L
91.5519 162.189 L
92.2511 163.596 L
92.9504 164.974 L
93.6496 166.322 L
94.3489 167.638 L
95.0481 168.921 L
95.7474 170.17 L
96.4466 171.385 L
97.1459 172.564 L
97.8451 173.706 L
98.5444 174.811 L
99.2436 175.877 L
99.9429 176.903 L
100.642 177.888 L
101.341 178.832 L
102.041 179.734 L
102.74 180.594 L
103.439 181.409 L
104.138 182.18 L
104.838 182.906 L
105.537 183.586 L
106.236 184.221 L
106.935 184.808 L
107.635 185.348 L
108.334 185.84 L
109.033 186.285 L
109.732 186.68 L
110.432 187.027 L
111.131 187.325 L
111.83 187.574 L
112.529 187.773 L
113.229 187.923 L
113.928 188.023 L
114.627 188.074 L
115.326 188.075 L
116.026 188.026 L
116.725 187.928 L
117.424 187.781 L
118.123 187.585 L
118.823 187.34 L
119.522 187.046 L
120.221 186.705 L
120.92 186.315 L
121.62 185.879 L
122.319 185.395 L
123.018 184.865 L
123.717 184.289 L
124.417 183.668 L
125.116 183.001 L
125.815 182.291 L
126.514 181.537 L
127.214 180.741 L
127.913 179.902 L
128.612 179.022 L
129.311 178.102 L
130.011 177.142 L
130.71 176.143 L
131.409 175.106 L
132.108 174.032 L
132.808 172.922 L
133.507 171.777 L
134.206 170.597 L
134.905 169.385 L
135.605 168.14 L
136.304 166.864 L
137.003 165.558 L
137.702 164.223 L
138.402 162.861 L
139.101 161.472 L
139.8 160.057 L
140.499 158.618 L
141.199 157.156 L
141.898 155.672 L
142.597 154.168 L
143.296 152.644 L
143.995 151.101 L
144.695 149.542 L
145.394 147.968 L
146.093 146.379 L
146.792 144.777 L
147.492 143.163 L
148.191 141.539 L
148.89 139.906 L
149.589 138.266 L
150.289 136.619 L
150.988 134.967 L
151.687 133.312 L
152.386 131.654 L
153.086 129.996 L
153.785 128.338 L
154.484 126.682 L
155.183 125.029 L
155.883 123.381 L
156.582 121.739 L
157.281 120.103 L
157.98 118.476 L
158.68 116.858 L
159.379 115.251 L
160.078 113.656 L
160.777 112.074 L
161.477 110.506 L
162.176 108.954 L
162.875 107.418 L
163.574 105.899 L
164.274 104.398 L
164.973 102.917 L
165.672 101.455 L
166.371 100.015 L
167.071 98.5957 L
167.77 97.199 L
168.469 95.8253 L
169.168 94.4751 L
169.868 93.149 L
170.567 91.8475 L
171.266 90.5708 L
171.965 89.3194 L
172.665 88.0936 L
173.364 86.8934 L
174.063 85.7191 L
174.762 84.5709 L
175.462 83.4487 L
176.161 82.3525 L
176.86 81.2825 L
177.559 80.2385 L
178.259 79.2205 L
178.958 78.2284 L
179.657 77.2621 L
180.356 76.3215 L
181.056 75.4066 L
181.755 74.5173 L
182.454 73.6534 L
183.153 72.8148 L
183.853 72.0016 L
184.552 71.2136 L
185.251 70.4509 L
185.95 69.7135 L
186.65 69.0014 L
187.349 68.3147 L
188.048 67.6536 L
188.747 67.0182 L
189.447 66.4089 L
190.146 65.8258 L
190.845 65.2695 L
191.544 64.7402 L
192.244 64.2386 L
192.943 63.7651 L
193.642 63.3203 L
194.341 62.9048 L
195.041 62.5193 L
195.74 62.1644 L
196.439 61.8407 L
197.138 61.5491 L
197.838 61.2902 L
198.537 61.0647 L
199.236 60.8733 L
199.935 60.7167 L
200.635 60.5956 L
201.334 60.5105 L
202.033 60.4622 L
202.732 60.4512 L
203.432 60.4781 L
204.131 60.5433 L
204.83 60.6473 L
205.529 60.7905 L
206.229 60.9733 L
206.928 61.1959 L
207.627 61.4584 L
208.326 61.7611 L
209.026 62.1038 L
209.725 62.4866 L
210.424 62.9092 L
211.123 63.3714 L
211.823 63.8728 L
212.522 64.4129 L
213.221 64.9911 L
213.92 65.6067 L
214.62 66.2588 L
215.319 66.9467 L
216.018 67.6692 L
216.717 68.4253 L
217.417 69.2139 L
218.116 70.0336 L
218.815 70.8831 L
219.514 71.7611 L
220.214 72.6662 L
220.913 73.5966 L
221.612 74.551 L
222.311 75.5276 L
223.011 76.5247 L
223.71 77.5406 L
224.409 78.5735 L
225.108 79.6217 L
225.808 80.6831 L
226.507 81.756 L
227.206 82.8384 L
227.905 83.9285 L
228.605 85.0241 L
229.304 86.1234 L
230.003 87.2243 L
230.702 88.3249 L
231.402 89.4232 L
232.101 90.5171 L
232.8 91.6048 L
233.499 92.6842 L
234.199 93.7533 L
234.898 94.8102 L
235.597 95.853 L
236.296 96.8797 L
236.995 97.8885 L
237.695 98.8777 L
238.394 99.8452 L
239.093 100.789 L
239.792 101.709 L
240.492 102.601 L
241.191 103.466 L
241.89 104.3 L
242.589 105.103 L
243.289 105.874 L
243.988 106.61 L
244.687 107.311 L
245.386 107.975 L
246.086 108.602 L
246.785 109.19 L
247.484 109.738 L
248.183 110.246 L
248.883 110.712 L
249.582 111.137 L
250.281 111.519 L
250.98 111.858 L
251.68 112.154 L
252.379 112.407 L
253.078 112.616 L
253.777 112.781 L
254.477 112.902 L
255.176 112.979 L
255.875 113.013 L
256.574 113.004 L
257.274 112.951 L
257.973 112.856 L
258.672 112.719 L
259.371 112.54 L
260.071 112.32 L
260.77 112.06 L
261.469 111.759 L
262.168 111.42 L
262.868 111.043 L
263.567 110.628 L
264.266 110.177 L
264.965 109.691 L
265.665 109.17 L
266.364 108.615 L
267.063 108.029 L
267.762 107.411 L
268.462 106.763 L
269.161 106.086 L
269.86 105.382 L
270.559 104.651 L
271.259 103.895 L
271.958 103.115 L
272.657 102.313 L
273.356 101.49 L
274.056 100.647 L
274.755 99.7848 L
275.454 98.9059 L
276.153 98.0113 L
276.853 97.1022 L
277.552 96.1802 L
278.251 95.2465 L
278.95 94.3027 L
279.65 93.35 L
280.349 92.3899 L
281.048 91.4238 L
281.747 90.453 L
282.447 89.479 L
283.146 88.5032 L
283.845 87.5269 L
284.544 86.5516 L
285.244 85.5785 L
285.943 84.6091 L
286.642 83.6447 L
287.341 82.6866 L
288.041 81.7362 L
288.74 80.7948 L
289.439 79.8636 L
290.138 78.9439 L
290.838 78.037 L
291.537 77.1441 L
292.236 76.2665 L
292.935 75.4053 L
293.635 74.5617 L
294.334 73.7367 L
295.033 72.9317 L
295.732 72.1475 L
296.432 71.3853 L
297.131 70.6461 L
297.83 69.9309 L
298.529 69.2406 L
299.229 68.5763 L
299.928 67.9387 L
300.627 67.3289 L
301.326 66.7476 L
302.026 66.1956 L
302.725 65.6738 L
303.424 65.1829 L
304.123 64.7236 L
304.823 64.2967 L
305.522 63.9028 L
306.221 63.5425 L
306.92 63.2165 L
307.62 62.9254 L
308.319 62.6696 L
309.018 62.4498 L
309.717 62.2664 L
310.417 62.1198 L
311.116 62.0106 L
311.815 61.9391 L
312.514 61.9056 L
313.214 61.9105 L
313.913 61.9542 L
314.612 62.0368 L
315.311 62.1587 L
316.011 62.32 L
316.71 62.5209 L
317.409 62.7617 L
318.108 63.0423 L
318.808 63.3629 L
319.507 63.7235 L
320.206 64.1242 L
320.905 64.565 L
321.605 65.0457 L
322.304 65.5665 L
323.003 66.1271 L
323.702 66.7273 L
324.402 67.3672 L
325.101 68.0463 L
325.8 68.7646 LE
grestore
gsave
1.0 1.0 scale
newpath 0 0 moveto 360 0 lineto 360 252 lineto 0 252 lineto
closepath clip
1 1 1 C
229.785 222.429 315.129 176.423 229.785 176.423 T
229.785 222.429 315.129 222.429 315.129 176.423 T
0.5 W
2 LC
[16 0] 0 setdash
0.15 0.15 0.15 C
229.785 176.423 LS
315.129 176.423 LE
229.785 222.429 LS
315.129 222.429 LE
229.785 176.423 LS
229.785 222.429 LE
315.129 176.423 LS
315.129 222.429 LE
gsave
0 0 0 C
(data) [5 5 3 10] 0 256.017 211.262 9 /Helvetica SRX
grestore

gsave
0 0 0 C
(no constraints) [5 5 2 5 5 5 4 3 3 5 2 5 3 10] 0 256.017 195.426 9 /Helvetica SRX
grestore

gsave
0 0 0 C
(periodic) [5 5 3 2 5 5 2 10] 0 256.017 181.091 9 /Helvetica SRX
grestore

0 0.447 0.741 C
243.901 214.762 242.401 213.896 243.401 213.896 T
243.901 214.762 241.901 214.762 242.401 213.896 T
243.901 214.762 242.401 215.628 241.901 214.762 T
243.901 214.762 243.401 215.628 242.401 215.628 T
243.901 214.762 243.901 214.762 243.401 215.628 T
0 LC
1 LJ
[] 0 setdash
0.85 0.325 0.098 C
232.897 199.426 LS
252.905 199.426 LE
0.929 0.694 0.125 C
232.897 184.091 LS
252.905 184.091 LE
grestore
grestore
showpage
cleartomark
%%PageTrailer
%%Trailer
end
%%EOF
