%!PS-Adobe-3.0 EPSF-3.0
%%Title: gl2ps_renderer figure
%%Creator: GL2PS 1.4.0, (C) 1999-2017 C. Geuzaine
%%For: Octave
%%CreationDate: Mon Feb  3 11:34:52 2020
%%LanguageLevel: 3
%%DocumentData: Clean7Bit
%%Pages: 1
%%BoundingBox: 0 0 360 252
%%EndComments
%%BeginProlog
/gl2psdict 64 dict def gl2psdict begin
/tryPS3shading false def % set to false to force subdivision
/rThreshold 0.064 def % red component subdivision threshold
/gThreshold 0.034 def % green component subdivision threshold
/bThreshold 0.1 def % blue component subdivision threshold
/BD { bind def } bind def
/C  { setrgbcolor } BD
/G  { 0.082 mul exch 0.6094 mul add exch 0.3086 mul add neg 1.0 add setgray } BD
/W  { setlinewidth } BD
/LC  { setlinecap } BD
/LJ  { setlinejoin } BD
/FC { findfont exch /SH exch def SH scalefont setfont } BD
/SW { dup stringwidth pop } BD
/S  { FC moveto show } BD
/SBC{ FC moveto SW -2 div 0 rmoveto show } BD
/SBR{ FC moveto SW neg 0 rmoveto show } BD
/SCL{ FC moveto 0 SH -2 div rmoveto show } BD
/SCC{ FC moveto SW -2 div SH -2 div rmoveto show } BD
/SCR{ FC moveto SW neg SH -2 div rmoveto show } BD
/STL{ FC moveto 0 SH neg rmoveto show } BD
/STC{ FC moveto SW -2 div SH neg rmoveto show } BD
/STR{ FC moveto SW neg SH neg rmoveto show } BD
/FCT { FC translate 0 0 } BD
/SR  { gsave FCT moveto rotate show grestore } BD
/SRX  { gsave FCT moveto rotate xshow grestore } BD
/SBCR{ gsave FCT moveto rotate SW -2 div 0 rmoveto show grestore } BD
/SBRR{ gsave FCT moveto rotate SW neg 0 rmoveto show grestore } BD
/SCLR{ gsave FCT moveto rotate 0 SH -2 div rmoveto show grestore} BD
/SCCR{ gsave FCT moveto rotate SW -2 div SH -2 div rmoveto show grestore} BD
/SCRR{ gsave FCT moveto rotate SW neg SH -2 div rmoveto show grestore} BD
/STLR{ gsave FCT moveto rotate 0 SH neg rmoveto show grestore } BD
/STCR{ gsave FCT moveto rotate SW -2 div SH neg rmoveto show grestore } BD
/STRR{ gsave FCT moveto rotate SW neg SH neg rmoveto show grestore } BD
/P  { newpath 0.0 360.0 arc closepath fill } BD
/LS { newpath moveto } BD
/L  { lineto } BD
/LE { lineto stroke } BD
/T  { newpath moveto lineto lineto closepath fill } BD
/STshfill {
      /b1 exch def /g1 exch def /r1 exch def /y1 exch def /x1 exch def
      /b2 exch def /g2 exch def /r2 exch def /y2 exch def /x2 exch def
      /b3 exch def /g3 exch def /r3 exch def /y3 exch def /x3 exch def
      gsave << /ShadingType 4 /ColorSpace [/DeviceRGB]
      /DataSource [ 0 x1 y1 r1 g1 b1 0 x2 y2 r2 g2 b2 0 x3 y3 r3 g3 b3 ] >>
      shfill grestore } BD
/Tm { 3 -1 roll 8 -1 roll 13 -1 roll add add 3 div
      3 -1 roll 7 -1 roll 11 -1 roll add add 3 div
      3 -1 roll 6 -1 roll 9 -1 roll add add 3 div C T } BD
/STsplit {
      4 index 15 index add 0.5 mul
      4 index 15 index add 0.5 mul
      4 index 15 index add 0.5 mul
      4 index 15 index add 0.5 mul
      4 index 15 index add 0.5 mul
      5 copy 5 copy 25 15 roll
      9 index 30 index add 0.5 mul
      9 index 30 index add 0.5 mul
      9 index 30 index add 0.5 mul
      9 index 30 index add 0.5 mul
      9 index 30 index add 0.5 mul
      5 copy 5 copy 35 5 roll 25 5 roll 15 5 roll
      4 index 10 index add 0.5 mul
      4 index 10 index add 0.5 mul
      4 index 10 index add 0.5 mul
      4 index 10 index add 0.5 mul
      4 index 10 index add 0.5 mul
      5 copy 5 copy 40 5 roll 25 5 roll 15 5 roll 25 5 roll
      STnoshfill STnoshfill STnoshfill STnoshfill } BD
/STnoshfill {
      2 index 8 index sub abs rThreshold gt
      { STsplit }
      { 1 index 7 index sub abs gThreshold gt
        { STsplit }
        { dup 6 index sub abs bThreshold gt
          { STsplit }
          { 2 index 13 index sub abs rThreshold gt
            { STsplit }
            { 1 index 12 index sub abs gThreshold gt
              { STsplit }
              { dup 11 index sub abs bThreshold gt
                { STsplit }
                { 7 index 13 index sub abs rThreshold gt
                  { STsplit }
                  { 6 index 12 index sub abs gThreshold gt
                    { STsplit }
                    { 5 index 11 index sub abs bThreshold gt
                      { STsplit }
                      { Tm }
                      ifelse }
                    ifelse }
                  ifelse }
                ifelse }
              ifelse }
            ifelse }
          ifelse }
        ifelse }
      ifelse } BD
tryPS3shading
{ /shfill where
  { /ST { STshfill } BD }
  { /ST { STnoshfill } BD }
  ifelse }
{ /ST { STnoshfill } BD }
ifelse
end
%%EndProlog
%%BeginSetup
/DeviceRGB setcolorspace
gl2psdict begin
%%EndSetup
%%Page: 1 1
%%BeginPageSetup
%%EndPageSetup
mark
gsave
1.0 1.0 scale
1 1 1 C
newpath 0 0 moveto 360 0 lineto 360 252 lineto 0 252 lineto
closepath fill
gsave
1.0 1.0 scale
1 1 1 C
newpath 0 0 moveto 360 0 lineto 360 252 lineto 0 252 lineto
closepath fill
newpath 0 0 moveto 360 0 lineto 360 252 lineto 0 252 lineto
closepath clip
1 1 1 C
46.8 233.1 325.8 27.72 46.8 27.72 T
46.8 233.1 325.8 233.1 325.8 27.72 T
0.5 W
0.15 0.15 0.15 C
46.8 27.72 LS
46.8 30.5152 LE
46.8 233.1 LS
46.8 230.305 LE
102.6 27.72 LS
102.6 30.5152 LE
102.6 233.1 LS
102.6 230.305 LE
158.4 27.72 LS
158.4 30.5152 LE
158.4 233.1 LS
158.4 230.305 LE
214.2 27.72 LS
214.2 30.5152 LE
214.2 233.1 LS
214.2 230.305 LE
270 27.72 LS
270 30.5152 LE
270 233.1 LS
270 230.305 LE
325.8 27.72 LS
325.8 30.5152 LE
325.8 233.1 LS
325.8 230.305 LE
gsave
0.14902 0.14902 0.14902 C
(0) [10] 0 43.8 12.2061 10 /Helvetica SRX
grestore

gsave
0.14902 0.14902 0.14902 C
(0.2) [6 3 10] 0 95.1 12.2061 10 /Helvetica SRX
grestore

gsave
0.14902 0.14902 0.14902 C
(0.4) [6 3 10] 0 150.9 12.2061 10 /Helvetica SRX
grestore

gsave
0.14902 0.14902 0.14902 C
(0.6) [6 3 10] 0 206.7 12.2061 10 /Helvetica SRX
grestore

gsave
0.14902 0.14902 0.14902 C
(0.8) [6 3 10] 0 262.5 12.2061 10 /Helvetica SRX
grestore

gsave
0.14902 0.14902 0.14902 C
(1) [10] 0 322.8 12.2061 10 /Helvetica SRX
grestore

46.8 27.72 LS
49.59 27.72 LE
325.8 27.72 LS
323.01 27.72 LE
46.8 68.796 LS
49.59 68.796 LE
325.8 68.796 LS
323.01 68.796 LE
46.8 109.872 LS
49.59 109.872 LE
325.8 109.872 LS
323.01 109.872 LE
46.8 150.948 LS
49.59 150.948 LE
325.8 150.948 LS
323.01 150.948 LE
46.8 192.024 LS
49.59 192.024 LE
325.8 192.024 LS
323.01 192.024 LE
46.8 233.1 LS
49.59 233.1 LE
325.8 233.1 LS
323.01 233.1 LE
gsave
0.14902 0.14902 0.14902 C
(0) [10] 0 35.8 23.72 10 /Helvetica SRX
grestore

gsave
0.14902 0.14902 0.14902 C
(0.2) [6 3 10] 0 26.8 64.796 10 /Helvetica SRX
grestore

gsave
0.14902 0.14902 0.14902 C
(0.4) [6 3 10] 0 26.8 105.872 10 /Helvetica SRX
grestore

gsave
0.14902 0.14902 0.14902 C
(0.6) [6 3 10] 0 26.8 146.948 10 /Helvetica SRX
grestore

gsave
0.14902 0.14902 0.14902 C
(0.8) [6 3 10] 0 26.8 188.024 10 /Helvetica SRX
grestore

gsave
0.14902 0.14902 0.14902 C
(1) [10] 0 35.8 229.1 10 /Helvetica SRX
grestore

2 LC
[16 0] 0 setdash
46.8 27.72 LS
325.8 27.72 LE
46.8 233.1 LS
325.8 233.1 LE
46.8 27.72 LS
46.8 233.1 LE
325.8 27.72 LS
325.8 233.1 LE
0 LC
1 LJ
[] 0 setdash
0 0.447 0.741 C
252.136 210.876 LS
311.681 211.242 L
156.595 232.83 L
252.136 210.876 LE
121.639 213.916 LS
132.77 142.838 L
62.5778 123.2 L
121.639 213.916 LE
70.4793 93.1264 LS
132.77 142.838 L
62.5778 123.2 L
70.4793 93.1264 LE
248.52 166.245 LS
252.136 210.876 L
311.681 211.242 L
248.52 166.245 LE
313.534 35.0981 LS
311.244 33.3566 L
324.355 65.067 L
313.534 35.0981 LE
215.858 76.215 LS
311.244 33.3566 L
324.355 65.067 L
215.858 76.215 LE
170.914 178.551 LS
121.639 213.916 L
156.595 232.83 L
170.914 178.551 L
121.639 213.916 L
132.77 142.838 L
170.914 178.551 LE
216.098 32.62 LS
215.858 76.215 L
90.9888 55.7949 L
216.098 32.62 L
215.858 76.215 L
311.244 33.3566 L
216.098 32.62 LE
208.956 94.4978 LS
215.858 76.215 L
90.9888 55.7949 L
208.956 94.4978 LE
279.904 105.767 LS
215.858 76.215 L
324.355 65.067 L
279.904 105.767 L
248.52 166.245 L
233.655 135.699 L
279.904 105.767 L
208.956 94.4978 L
233.655 135.699 L
279.904 105.767 L
208.956 94.4978 L
215.858 76.215 L
279.904 105.767 L
311.681 211.242 L
324.355 65.067 L
279.904 105.767 L
248.52 166.245 L
311.681 211.242 L
279.904 105.767 LE
166.957 132.51 LS
170.914 178.551 L
233.655 135.699 L
166.957 132.51 L
170.914 178.551 L
132.77 142.838 L
166.957 132.51 L
208.956 94.4978 L
233.655 135.699 L
166.957 132.51 L
70.4793 93.1264 L
132.77 142.838 L
166.957 132.51 L
70.4793 93.1264 L
90.9888 55.7949 L
166.957 132.51 L
208.956 94.4978 L
90.9888 55.7949 L
166.957 132.51 LE
198.625 191.359 LS
248.52 166.245 L
233.655 135.699 L
198.625 191.359 L
170.914 178.551 L
233.655 135.699 L
198.625 191.359 L
248.52 166.245 L
252.136 210.876 L
198.625 191.359 L
252.136 210.876 L
156.595 232.83 L
198.625 191.359 L
170.914 178.551 L
156.595 232.83 L
198.625 191.359 LE
grestore
grestore
showpage
cleartomark
%%PageTrailer
%%Trailer
end
%%EOF
